link_url_to_expand,size
https://ilgiornale.it/news/politica/certificato-aprile-e-vaccini-record-danimarca-oggi-abolisce-1974441.html/,2
https://lastampa.it/topnews/edizioni-locali/torino/2021/09/19/news/sanita-ridotte-le-liste-di-attesa-ma-si-teme-l-impatto-dei-vaccini-1.40718583/,2
https://lastampa.it/topnews/edizioni-locali/torino/2021/09/13/news/tra-gli-over-60-gli-irriducibili-senza-vaccino-1.40696618/,2
https://bit.ly/3fvj7oi/,2
https://quidestveritas.site/,2
https://paper.li/thodra/1445630483/,2
https://torino.repubblica.it/cronaca/2021/09/11/news/giuseppe_conte_m5s_novara_torino-317350904/,2
https://paper.li/rassstampa/1410191705/,2
https://amiciamici.com/,2
https://paper.li/albertomarkini/1407937870/,2
https://bit.ly/direttaunomattinaestatetwitter/,2
https://ilgiornale.it/news/cronache/green-pass-auschwitz-procedimento-disciplinare-contro-1976256.html/,2
https://ilgiornale.it/news/cronache/incitamenti-violenza-telegram-chiude-i-canali-no-vax-1978234.html/,2
https://italiaviva.it/greenpass_cultura/,2
https://ilgiornale.it/news/politica/frenata-dellema-sui-vaccini-divide-nuovamente-i-virologi-1973111.html/,2
