expanded_url,size
https://davvero.tv/__client_error__/,2
https://bmj.com/__connectionpool_error__/,2
https://focusonafrica.info/__connectionpool_error__/,2
https://gustoh24.it/__connectionpool_error__/,2
https://intoscana.it/__connectionpool_error__/,2
https://paologulisano.com/__connectionpool_error__/,2
https://torino.corriere.it/__connectionpool_error__/,2
https://rumble.com/__client_error__/,2
https://newsmax.com/__connectionpool_error__/,2
https://confartigianato.it/__connectionpool_error__/,2
https://electomagazine.it/__connectionpool_error__/,2
https://reteveneta.medianordest.it/__connectionpool_error__/,2
https://vendingnews.it/__connectionpool_error__/,2
https://unionecdl.it/__connectionpool_error__/,2
https://hookii.org/__connectionpool_error__/,2
https://radioclodia.it/__connectionpool_error__/,2
https://medicalxpress.com/__client_error__/,2
https://moh.gov.sg/__client_error__/,2
https://comparinirusso.it/__connectionpool_error__/,2
https://dottrinalavoro.it/__connectionpool_error__/,2
https://ilgiornale.artestv.it/__connectionpool_error__/,2
https://dagospia.com/__client_error__/,2
https://nomoscsp.com/__connectionpool_error__/,2
https://focustech.it/__connectionpool_error__/,2
https://med4.care/__client_error__/,2
https://nigrizia.it/__connectionpool_error__/,2
https://wol.jw.org/__connectionpool_error__/,2
https://lagazzettacampana.it/__connectionpool_error__/,2
https://mondonapoli.it/__connectionpool_error__/,2
https://bluemax.me/__connectionpool_error__/,2
https://iconaclima.it/__connectionpool_error__/,2
https://partitodemocratico.it/__client_error__/,2
https://informagiovaniroma.it/__connectionpool_error__/,2
https://open.online/__client_error__/,2
https://nexusvault.it/__connectionpool_error__/,2
https://github.com/__connectionpool_error__/,2
https://eventiavversinews.it/__connectionpool_error__/,2
https://corriereuniv.it/__connectionpool_error__/,2
https://themoscowtimes.com/__client_error__/,2
https://telecolor.net/__connectionpool_error__/,2
https://radioluna.it/__connectionpool_error__/,2
https://ilsussidiario.net/__connectionpool_error__/,2
https://blog.messainlatino.it/__connectionpool_error__/,2
https://lnx.sindacatodeimilitari.org/__connectionpool_error__/,2
https://ecodibergamo.it/__connectionpool_error__/,2
https://udine20.it/__client_error__/,2
https://upi.pr.it/__connectionpool_error__/,2
https://linkiesta.it/__client_error__/,2
https://lnkd.in/__connectionpool_error__/,2
https://coolinmilan.it/__connectionpool_error__/,2
https://pozzuoli21.it/__connectionpool_error__/,2
https://giornalelora.it/__connectionpool_error__/,2
https://lumsa.it/__connectionpool_error__/,2
https://euroweeklynews.com/__client_error__/,2
https://ipsos.com/__client_error__/,2
https://linterista.it/__client_error__/,2
https://cuneocronaca.it/__connectionpool_error__/,2
https://gqitalia.it/__connectionpool_error__/,2
https://fierauccelli.com/__connectionpool_error__/,2
https://corrierediragusa.it/__connectionpool_error__/,2
https://comunicatistampa.net/__connectionpool_error__/,2
https://pnas.org/__connectionpool_error__/,2
https://fabianoamati.it/__connectionpool_error__/,2
https://dabitonto.com/__client_error__/,2
https://mag24.es/__client_error__/,2
https://dap.ema.europa.eu/__connectionpool_error__/,2
https://webradioiuslaw.it/__client_error__/,2
https://19mag.net/__connectionpool_error__/,2
https://forzanuova.eu/__client_error__/,2
https://raiplay.it/__client_error__/,2
https://lavoro.gov.it/__connectionpool_error__/,2
https://filcacisl.it/__connectionpool_error__/,2
https://redvoicemedia.com/__connectionpool_error__/,2
https://ilgazzettinonuovo.it/__connectionpool_error__/,2
https://napolitoday.it/__connectionpool_error__/,2
https://disinformazione.it/__connectionpool_error__/,2
https://laverita.info/__connectionpool_error__/,2
https://csvlombardia.it/__client_error__/,2
https://iustitiainveritate.org/__client_error__/,2
https://f24.my/__client_error__/,2
https://m.facebook.com/__connectionpool_error__/,2
https://formiche.net/__connectionpool_error__/,2
https://7per24.it/__client_error__/,2
https://fb.me/__connectionpool_error__/,2
https://cgilmodena.it/__connectionpool_error__/,2
https://generiamosalute.it/__client_error__/,2
https://bufale.net/__client_error__/,2
https://cilentoreporter.it/__connectionpool_error__/,2
https://lamartinelladifirenze.it/__connectionpool_error__/,2
https://novaxnews.netsons.org/__connectionpool_error__/,2
https://footballnews24.it/__connectionpool_error__/,2
https://ottopagine.it/__connectionpool_error__/,2
https://ilmamilio.it/__connectionpool_error__/,2
https://ilcaso.it/__client_error__/,2
https://hopemedia.it/__client_error__/,2
https://onuitalia.com/__client_error__/,2
https://principia-scientific.com/__client_error__/,2
https://informazionecorretta.com/__connectionpool_error__/,2
https://rls.firenze.cgil.it/__connectionpool_error__/,2
https://insic.it/__connectionpool_error__/,2
https://regione.sicilia.it/__connectionpool_error__/,2
https://modernhealthcare.com/__connectionpool_error__/,2
https://corrieredicomo.it/__client_error__/,2
https://ofcs.it/__connectionpool_error__/,2
https://cgil.it/__client_error__/,2
https://aspirina.it/__client_error__/,2
https://blog.rubbettinoeditore.it/__connectionpool_error__/,2
https://ialmo.it/__connectionpool_error__/,2
https://canosa.news24.city/__connectionpool_error__/,2
https://edicola.ilfoglio.it/__connectionpool_error__/,2
https://radiolaquila1.it/__connectionpool_error__/,2
https://fonteufficiale.com/__connectionpool_error__/,2
https://imperianews.it/__client_error__/,2
https://iodonna.it/__connectionpool_error__/,2
https://samsungcloud.com/__client_error__/,2
https://profitdividend.com/__connectionpool_error__/,2
https://infomedianews.com/__connectionpool_error__/,2
https://unipegaso.it/__client_error__/,2
https://ilfoglio.it/__client_error__/,2
https://milanotoday.it/__client_error__/,2
https://ampproject.org/__client_error__/,2
https://vivicentro.it/__client_error__/,2
https://saluteinternazionale.info/__client_error__/,2
https://trifiro.it/__connectionpool_error__/,2
https://enniomora.it/__connectionpool_error__/,2
https://artlimited.net/__client_error__/,2
https://osservatoriomalattierare.it/__connectionpool_error__/,2
https://firenzepost.it/__client_error__/,2
https://tgregione.it/__connectionpool_error__/,2
https://jusdicere.it/__connectionpool_error__/,2
https://vnexpress.net/__client_error__/,2
https://lombardianotizie.online/__connectionpool_error__/,2
https://actioninstitute.org/__connectionpool_error__/,2
https://nuovomille.it/__connectionpool_error__/,2
https://nationalfile.com/__client_error__/,2
https://paolopoliti.blog/__connectionpool_error__/,2
https://sky.it/__client_error__/,2
https://unicef.it/__connectionpool_error__/,2
https://carlettoromeo.com/__connectionpool_error__/,2
https://hindustantimes.com/__client_error__/,2
https://nicolaporro.it/__connectionpool_error__/,2
https://reggioemilia.press/__connectionpool_error__/,2
https://zittrex.com/__client_error__/,2
https://gas.social/__connectionpool_error__/,2
https://unicaradio.it/__connectionpool_error__/,2
https://metronews.it/__connectionpool_error__/,2
https://nobelprize.org/__client_error__/,2
https://medicolavoro.org/__client_error__/,2
https://agenzianova.com/__client_error__/,2
https://gazzettadinapoli.it/__connectionpool_error__/,2
https://pattoperlascienza.it/__connectionpool_error__/,2
https://rivoluzione.red/__client_error__/,2
https://antennaradioesse.it/__connectionpool_error__/,2
https://agenparl.eu/__client_error__/,2
https://cnarieti.com/__client_error__/,2
https://photos.google.com/__connectionpool_error__/,2
https://antiper.org/__connectionpool_error__/,2
https://citymilanonews.com/__client_error__/,2
https://specchiosesto.it/__client_error__/,2
https://paolotuttotroppo.it/__client_error__/,2
https://corvelva.it/__connectionpool_error__/,2
https://it.aleteia.org/__connectionpool_error__/,2
https://lavocedellisola.it/__connectionpool_error__/,2
https://aogoi.it/__client_error__/,2
https://ilcaffegeopolitico.net/__connectionpool_error__/,2
https://infoaut.org/__connectionpool_error__/,2
https://webmd.com/__client_error__/,2
https://confindustriabrescia.it/__connectionpool_error__/,2
https://newsbreak.com/__client_error__/,2
https://zoom.us/__client_error__/,2
https://pagellapolitica.it/__connectionpool_error__/,2
https://infoparlamento.it/__connectionpool_error__/,2
https://kompas.com/__client_error__/,2
https://famigliacristiana.it/__connectionpool_error__/,2
https://radiobruno.it/__connectionpool_error__/,2
https://rosariogalatiotolibri.it/__connectionpool_error__/,2
https://ilgazzettino.it/__connectionpool_error__/,2
https://etazweb.it/__connectionpool_error__/,2
https://reportpistoia.com/__client_error__/,2
https://nhk.or.jp/__client_error__/,2
https://strill.it/__connectionpool_error__/,2
https://tgmessina.it/__connectionpool_error__/,2
https://eurocomunicazione.eu/__client_error__/,2
https://redattoresociale.it/__connectionpool_error__/,2
https://toscananews.net/__connectionpool_error__/,2
https://labottegadelbarbieri.org/__connectionpool_error__/,2
https://edilportale.com/__client_error__/,2
https://vaccinocovid.iss.sm/__connectionpool_error__/,2
https://who.int/__connectionpool_error__/,2
https://ntplusentilocaliedilizia.ilsole24ore.com/__connectionpool_error__/,2
https://tumblr.com/__client_error__/,2
https://lanotiziaincomune.it/__connectionpool_error__/,2
https://quirinale.it/__client_error__/,2
https://thelocal.it/__client_error__/,2
https://laziotv.it/__connectionpool_error__/,2
https://azionetradizionale.com/__connectionpool_error__/,2
https://sardanews.it/__connectionpool_error__/,2
https://cdt.ch/__connectionpool_error__/,2
https://suditaliavideo.it/__connectionpool_error__/,2
https://baraondanews.it/__connectionpool_error__/,2
https://videonotizietv.it/__connectionpool_error__/,2
https://amiatanews.it/__connectionpool_error__/,2
https://thehighwire.com/__client_error__/,2
https://massa-critica.it/__connectionpool_error__/,2
https://api.varese.it/__connectionpool_error__/,2
https://reseauinternational.net/__connectionpool_error__/,2
https://giornaledipuglia.com/__connectionpool_error__/,2
https://citizensjournal.us/__client_error__/,2
https://giorgiameloni.it/__connectionpool_error__/,2
https://thebl.com/__client_error__/,2
https://ausl.re.it/__connectionpool_error__/,2
https://gazzettagranata.com/__connectionpool_error__/,2
https://ilmattino.it/__client_error__/,2
https://tennisworlditalia.com/__connectionpool_error__/,2
https://voxitalia.org/__connectionpool_error__/,2
https://ticket-shop-cattedraledipalermo.it/__connectionpool_error__/,2
https://catt.ch/__connectionpool_error__/,2
https://prpchannel.com/__connectionpool_error__/,2
https://medicitalia.it/__connectionpool_error__/,2
https://claudiotalanti.it/__connectionpool_error__/,2
https://cnet.com/__connectionpool_error__/,2
https://bussolaculturale.it/__client_error__/,2
https://thetruedefender.com/__client_error__/,2
https://rovigooggi.it/__connectionpool_error__/,2
https://nicolaporro.it/__client_error__/,2
https://pisanews.net/__client_error__/,2
https://salutelazio.it/__connectionpool_error__/,2
https://latimes.com/__client_error__/,2
https://gogetfunding.com/__client_error__/,2
https://reader.paperlit.com/__connectionpool_error__/,2
https://wallnews24.it/__connectionpool_error__/,2
https://rsi.ch/__connectionpool_error__/,2
https://blog.terminologiaetc.it/__connectionpool_error__/,2
https://leggonewsletter.it/__connectionpool_error__/,2
https://sudestonline.it/__connectionpool_error__/,2
https://butac.it/__connectionpool_error__/,2
https://imolaoggi.it/__client_error__/,2
https://ufficiostampa.provincia.tn.it/__connectionpool_error__/,2
https://paolobellavite.it/__connectionpool_error__/,2
https://confcommercio.it/__connectionpool_error__/,2
https://tuttoatalanta.com/__connectionpool_error__/,2
https://montecarlonews.it/__connectionpool_error__/,2
https://rpstrategy.it/__client_error__/,2
https://siciliabuona.com/__connectionpool_error__/,2
https://telecolore.it/__connectionpool_error__/,2
https://greenme.it/__connectionpool_error__/,2
https://fides.org/__connectionpool_error__/,2
https://csvnet.it/__connectionpool_error__/,2
https://allmusicitalia.it/__client_error__/,2
https://alguer.it/__connectionpool_error__/,2
https://ilsecoloxix.it/__connectionpool_error__/,2
https://timcast.com/__client_error__/,2
https://skip.li/__connectionpool_error__/,2
https://frontiere.me/__connectionpool_error__/,2
https://cronachedellacampania.it/__connectionpool_error__/,2
https://ideanews24.com/__connectionpool_error__/,2
https://simplesite.com/__client_error__/,2
https://siciliareporter.com/__connectionpool_error__/,2
https://radiotusciaevents.com/__client_error__/,2
https://avvenire.it/__client_error__/,2
https://unherd.com/__client_error__/,2
https://moebiuslugano.ch/__client_error__/,2
https://nytimes.com/__connectionpool_error__/,2
https://prealpina.it/__connectionpool_error__/,2
https://giornalemetropolitano.com/__client_error__/,2
https://matteorenzi.it/__client_error__/,2
https://blog.solignani.it/__connectionpool_error__/,2
https://news.it/__connectionpool_error__/,2
https://cinquerighe.it/__connectionpool_error__/,2
https://palermolive.it/__connectionpool_error__/,2
https://images.app.goo.gl/__connectionpool_error__/,2
https://notiziediprato.it/__connectionpool_error__/,2
https://aboutpharma.com/__connectionpool_error__/,2
https://trend-online.com/__connectionpool_error__/,2
https://fiercepharma.com/__client_error__/,2
https://vita.it/__connectionpool_error__/,2
https://palermotoday.it/__connectionpool_error__/,2
https://bluewin.ch/__connectionpool_error__/,2
https://j.mp/__connectionpool_error__/,2
https://italiacooperativa.it/__connectionpool_error__/,2
https://nessunacorrelazione.tv/__client_error__/,2
https://italiador.com/__connectionpool_error__/,2
https://messinamagazine.it/__connectionpool_error__/,2
https://t.co/__connectionpool_error__/,2
https://valori.it/__client_error__/,2
https://neldeliriononeromaisola.it/__connectionpool_error__/,2
https://grandeinganno.it/__client_error__/,2
https://fotospot.it/__client_error__/,2
https://rassegnastampa.eu/__connectionpool_error__/,2
https://ilreporter.it/__client_error__/,2
https://federdistribuzione.it/__client_error__/,2
https://quinewsvaldera.it/__connectionpool_error__/,2
https://mitomorrow.it/__client_error__/,2
https://beverfood.com/__client_error__/,2
https://affaritaliani.it/__client_error__/,2
https://beckershospitalreview.com/__client_error__/,2
https://channelcity.it/__connectionpool_error__/,2
https://viaggionelmolise.it/__connectionpool_error__/,2
https://imolaoggi.it/__connectionpool_error__/,2
https://buongiornoalghero.it/__connectionpool_error__/,2
https://assolavoro.eu/__client_error__/,2
https://ntplusdiritto.ilsole24ore.com/__connectionpool_error__/,3
https://tvsette.net/__connectionpool_error__/,3
https://bisceglie24.it/__connectionpool_error__/,3
https://lautomobile.aci.it/__connectionpool_error__/,3
https://lorenzoquadri.ch/__client_error__/,3
https://scriptamanentitalia.it/__connectionpool_error__/,3
https://bloglovin.com/__client_error__/,3
https://latorre1905.it/__connectionpool_error__/,3
https://104news.it/__client_error__/,3
https://newsimedia.net/__connectionpool_error__/,3
https://roma.corriere.it/__connectionpool_error__/,3
https://osservatoriorepressione.info/__connectionpool_error__/,3
https://msn.com/__connectionpool_error__/,3
https://terzogiornale.it/__connectionpool_error__/,3
https://ilgazzettino.it/__client_error__/,3
https://esteri.it/__client_error__/,3
https://unita.news/__connectionpool_error__/,3
https://nbst.it/__client_error__/,3
https://ilgiornaledelmolise.it/__connectionpool_error__/,3
https://crotoneok.it/__connectionpool_error__/,3
https://bollettinoadapt.it/__connectionpool_error__/,3
https://corrieredelmezzogiorno.corriere.it/__connectionpool_error__/,3
https://e-r.press/__client_error__/,3
https://giornaledimontesilvano.com/__client_error__/,3
https://liguriaoggi.it/__connectionpool_error__/,3
https://europa.eu/__client_error__/,3
https://youtu.be/__connectionpool_error__/,3
https://ildomenicalenews.it/__client_error__/,3
https://chicercatrova2000.it/__connectionpool_error__/,3
https://regione.emilia-romagna.it/__connectionpool_error__/,3
https://quotidianoweb.it/__connectionpool_error__/,3
https://t.me/__connectionpool_error__/,3
https://newsicilia.it/__connectionpool_error__/,3
https://dottrinalavoro.it/__client_error__/,3
https://abc.es/__client_error__/,3
https://calcioefinanza.it/__connectionpool_error__/,3
https://silviabianconcinipsicologa.blogspot.com/__connectionpool_error__/,3
https://change.org/__connectionpool_error__/,3
https://veronanews.net/__connectionpool_error__/,3
https://ausl.bologna.it/__client_error__/,3
https://ilmiodiabete.com/__connectionpool_error__/,3
https://psychiatryonline.it/__connectionpool_error__/,3
https://quotidianosicurezza.it/__connectionpool_error__/,3
https://madonielive.com/__connectionpool_error__/,3
https://lavocedellevoci.it/__connectionpool_error__/,3
https://7network.it/__connectionpool_error__/,3
https://modena.press/__connectionpool_error__/,3
https://fondazioneitaliainsalute.org/__connectionpool_error__/,3
https://ecodisavona.it/__connectionpool_error__/,3
https://rtl.it/__connectionpool_error__/,3
https://ilnapolionline.com/__connectionpool_error__/,3
https://lanotifica.it/__connectionpool_error__/,3
https://unionesarda.it/__connectionpool_error__/,3
https://radioitalia.it/__client_error__/,3
https://laquilablog.it/__connectionpool_error__/,3
https://corrierenazionale.net/__connectionpool_error__/,3
https://santeramolive.it/__connectionpool_error__/,3
https://ilmessaggero.it/__client_error__/,3
https://iltempo.it/__connectionpool_error__/,3
https://velvetmag.it/__connectionpool_error__/,3
https://ilgiornaledellaprotezionecivile.it/__connectionpool_error__/,3
https://irresponsabile.com/__connectionpool_error__/,3
https://paeseroma.it/__connectionpool_error__/,3
https://ilriformista.it/__connectionpool_error__/,3
https://neveitalia.it/__connectionpool_error__/,3
https://cosenzachannel.it/__client_error__/,3
https://lapresse.it/__connectionpool_error__/,3
https://mag.corriereal.info/__connectionpool_error__/,3
https://canale58.com/__connectionpool_error__/,3
https://cam.tv/__client_error__/,3
https://buongiornoslovacchia.sk/__client_error__/,3
https://ttgitalia.com/__connectionpool_error__/,3
https://cremaonline.it/__connectionpool_error__/,3
https://informazioneriservata.eu/__client_error__/,3
https://informa-press.it/__connectionpool_error__/,3
https://simg.it/__client_error__/,3
https://tarantinitime.it/__client_error__/,3
https://novionline.ilpiccolo.net/__connectionpool_error__/,3
https://radio24.ilsole24ore.com/__connectionpool_error__/,3
https://ilgolfo24.it/__connectionpool_error__/,3
https://latinascalo.org/__client_error__/,3
https://sanremonews.it/__client_error__/,3
https://areadem.info/__connectionpool_error__/,3
https://washingtonexaminer.com/__client_error__/,3
https://puntomagazine.it/__client_error__/,3
https://gelocal.it/__client_error__/,3
https://cronachedi.it/__connectionpool_error__/,3
https://hnews24.it/__client_error__/,3
https://tuttocarrellielevatori.it/__client_error__/,3
https://savonanews.it/__client_error__/,3
https://paulcraigroberts.org/__client_error__/,3
https://87tv.it/__connectionpool_error__/,3
https://tuttonapoli.net/__client_error__/,3
https://lindipendenzanuova.com/__connectionpool_error__/,3
https://studioalaimo.it/__client_error__/,3
https://avantilive.it/__connectionpool_error__/,3
https://tecnews.it/__connectionpool_error__/,3
https://csaral.it/__connectionpool_error__/,3
https://youmaker.com/__connectionpool_error__/,3
https://nytimes.com/__client_error__/,3
https://tuttoatalanta.com/__client_error__/,3
https://laprimapagina.it/__client_error__/,3
https://ec.europa.eu/__connectionpool_error__/,3
https://telecaprinews.it/__connectionpool_error__/,3
https://reggiotv.it/__connectionpool_error__/,3
https://beppegrillo.it/__client_error__/,3
https://ivg.it/__connectionpool_error__/,3
https://sevenpress.com/__client_error__/,3
https://teleborsa.it/__connectionpool_error__/,3
https://login.wolterskluwer.eu/__connectionpool_error__/,3
https://jw.org/__connectionpool_error__/,3
https://boards.net/__client_error__/,3
https://stranifatti.it/__connectionpool_error__/,3
https://webtv.camera.it/__connectionpool_error__/,3
https://granma.cu/__client_error__/,3
https://ibs.it/__client_error__/,3
https://antennasud.com/__connectionpool_error__/,3
https://lexellent.it/__client_error__/,3
https://madonienews.it/__connectionpool_error__/,3
https://cristianitoday.it/__connectionpool_error__/,3
https://aifa.gov.it/__client_error__/,3
https://camera.it/__connectionpool_error__/,3
https://infomessina.it/__client_error__/,3
https://raiplay.it/__connectionpool_error__/,3
https://fiercebiotech.com/__client_error__/,3
https://mega.nz/__connectionpool_error__/,3
https://vanityfair.it/__connectionpool_error__/,3
https://globaldpo.it/__client_error__/,3
https://justiciafuser.com/__connectionpool_error__/,3
https://cn24tv.it/__connectionpool_error__/,3
https://alessandria24.com/__connectionpool_error__/,3
https://agenparl.eu/__connectionpool_error__/,3
https://grandeinganno.it/__connectionpool_error__/,3
https://marcotosatti.com/__connectionpool_error__/,3
https://carlomauri.net/__connectionpool_error__/,3
https://detoxed.info/__client_error__/,3
https://giglionews.it/__connectionpool_error__/,4
https://radiopopolare.it/__connectionpool_error__/,4
https://laleggepertutti.it/__connectionpool_error__/,4
https://ambienteambienti.com/__connectionpool_error__/,4
https://agrigentonotizie.it/__connectionpool_error__/,4
https://clivatoscana.com/__connectionpool_error__/,4
https://animalisenzacasa.org/__connectionpool_error__/,4
https://logudorolive.it/__connectionpool_error__/,4
https://adnkronos.com/__client_error__/,4
https://straitstimes.com/__client_error__/,4
https://ilcattolico.it/__connectionpool_error__/,4
https://avvenire.it/__connectionpool_error__/,4
https://pinomerola.com/__connectionpool_error__/,4
https://gloo.it/__connectionpool_error__/,4
https://sanita.puglia.it/__connectionpool_error__/,4
https://tviweb.it/__connectionpool_error__/,4
https://editorialeitaliano.it/__connectionpool_error__/,4
https://3pareggi.it/__connectionpool_error__/,4
https://investors.modernatx.com/__connectionpool_error__/,4
https://welfarenetwork.it/__connectionpool_error__/,4
https://lungoparma.com/__connectionpool_error__/,4
https://calciomercato.com/__connectionpool_error__/,4
https://nurse24.it/__connectionpool_error__/,4
https://geertvandenbossche.org/__client_error__/,4
https://streamable.com/__client_error__/,4
https://lavocedelnordest.eu/__connectionpool_error__/,4
https://rmagazine.it/__connectionpool_error__/,4
https://forchecaudine.com/__connectionpool_error__/,4
https://rinascimentoitalia.it/__connectionpool_error__/,4
https://reccom.org/__client_error__/,4
https://tg24.sky.it/__connectionpool_error__/,4
https://uisp.it/__client_error__/,4
https://lasinistraquotidiana.it/__connectionpool_error__/,4
https://sivempveneto.it/__connectionpool_error__/,4
https://confartigianatoimpreseperugia.it/__connectionpool_error__/,4
https://ondatv.tv/__connectionpool_error__/,4
https://brigataperladifesadellovvio.com/__client_error__/,4
https://forestalinews.it/__connectionpool_error__/,4
https://charotarsamachar.com/__connectionpool_error__/,4
https://stamptoscana.it/__connectionpool_error__/,4
https://lacittadisalerno.it/__connectionpool_error__/,4
https://gofundme.com/__client_error__/,4
https://thebl.tv/__client_error__/,4
https://google.com/__client_error__/,4
https://eventiatmilano.it/__connectionpool_error__/,4
https://verbanianotizie.it/__connectionpool_error__/,4
https://goo.gl/__connectionpool_error__/,4
https://stopcensura.online/__client_error__/,4
https://mam-e.it/__connectionpool_error__/,4
https://soveratoweb.com/__connectionpool_error__/,4
https://ilsole24ore.com/__client_error__/,4
https://culturaesocieta.com/__connectionpool_error__/,4
https://vaticannews.va/__client_error__/,4
https://huffingtonpost.it/__connectionpool_error__/,4
https://coe.int/__client_error__/,4
https://vivereurbino.it/__connectionpool_error__/,4
https://davidemura.com/__client_error__/,4
https://live.comune.venezia.it/__connectionpool_error__/,4
https://oltreilfatto.it/__connectionpool_error__/,4
https://legacysso.wki.it/__connectionpool_error__/,4
https://eurocomunicazione.com/__client_error__/,4
https://siciliafeed.com/__connectionpool_error__/,4
https://jotv.it/__connectionpool_error__/,4
https://reddit.com/__connectionpool_error__/,4
https://gloria.tv/__client_error__/,4
https://biuso.eu/__connectionpool_error__/,4
https://letteraemme.it/__connectionpool_error__/,4
https://valledaostaglocal.it/__connectionpool_error__/,4
https://calabrianews.it/__connectionpool_error__/,4
https://radiospada.org/__connectionpool_error__/,4
https://fanpage.it/__client_error__/,4
https://paolotuttotroppo.it/__connectionpool_error__/,4
https://infinitynews.it/__connectionpool_error__/,4
https://mondopalermo.it/__connectionpool_error__/,4
https://cittadellaspezia.com/__connectionpool_error__/,4
https://tuttojuve.com/__client_error__/,4
https://primapress.it/__connectionpool_error__/,4
https://quotidiano.net/__connectionpool_error__/,4
https://corrierealpi.gelocal.it/__connectionpool_error__/,4
https://ilfattonisseno.it/__connectionpool_error__/,4
https://sienanews.it/__connectionpool_error__/,4
https://oxfamitalia.org/__client_error__/,4
https://ilmeridianonews.it/__client_error__/,4
https://salutelab.it/__connectionpool_error__/,4
https://100torri.it/__client_error__/,4
https://corrierequotidiano.it/__client_error__/,4
https://orawebtv.it/__connectionpool_error__/,4
https://giornalecittadinopress.it/__connectionpool_error__/,4
https://lavedettaditaliabz.it/__connectionpool_error__/,4
https://it.euronews.com/__connectionpool_error__/,4
https://iltirreno.gelocal.it/__connectionpool_error__/,4
https://romalife.it/__connectionpool_error__/,4
https://gab.com/__client_error__/,5
https://herokuapp.com/__client_error__/,5
https://parmapress24.it/__connectionpool_error__/,5
https://sinistrainrete.info/__connectionpool_error__/,5
https://blogspot.com/__client_error__/,5
https://meridiananotizie.it/__client_error__/,5
https://appiapolis.it/__connectionpool_error__/,5
https://ilpuntosociale.it/__client_error__/,5
https://corrierepl.it/__client_error__/,5
https://juorno.it/__connectionpool_error__/,5
https://ilgiornale.it/__connectionpool_error__/,5
https://istat.it/__client_error__/,5
https://linkedin.com/__client_error__/,5
https://marsica-web.it/__connectionpool_error__/,5
https://feelrouge.tv/__connectionpool_error__/,5
https://ateneoweb.com/__client_error__/,5
https://telenordest.medianordest.it/__connectionpool_error__/,5
https://protocollodelpopolo.it/__connectionpool_error__/,5
https://neifatti.it/__connectionpool_error__/,5
https://reumatoide.it/__client_error__/,5
https://lecconews.news/__connectionpool_error__/,5
https://instagram.com/__connectionpool_error__/,5
https://vocegiallorossa.it/__client_error__/,5
https://calabriadirettanews.com/__connectionpool_error__/,5
https://virgilio.it/__client_error__/,5
https://wired.it/__connectionpool_error__/,5
https://londrasoloandata.com/__client_error__/,5
https://osservatoreitalia.eu/__connectionpool_error__/,5
https://teleradiopace.tv/__connectionpool_error__/,5
https://messinaoggi.it/__connectionpool_error__/,5
https://ilmattino.it/__connectionpool_error__/,5
https://vcomevittoria.it/__connectionpool_error__/,5
https://raffaelepalermonews.com/__connectionpool_error__/,5
https://notiziedaest.com/__connectionpool_error__/,5
https://ticinonews.ch/__connectionpool_error__/,5
https://nuoto.com/__connectionpool_error__/,5
https://emergency-live.com/__connectionpool_error__/,5
https://ilcomizio.it/__client_error__/,5
https://lagazzettadelmezzogiorno.it/__connectionpool_error__/,5
https://sovranitapopolare.org/__connectionpool_error__/,5
https://cascinanotizie.it/__connectionpool_error__/,5
https://scrivolibero.it/__connectionpool_error__/,5
https://france24.com/__client_error__/,5
https://settesere.it/__connectionpool_error__/,5
https://notizieinunclick.com/__connectionpool_error__/,5
https://redazionenews.it/__connectionpool_error__/,5
https://arezzoweb.it/__connectionpool_error__/,5
https://lanuovaferrara.gelocal.it/__connectionpool_error__/,5
https://fonteufficiale.com/__client_error__/,5
https://aldomariavalli.it/__connectionpool_error__/,5
https://tg24.info/__connectionpool_error__/,5
https://studiolegalemarcomori.it/__connectionpool_error__/,5
https://websuggestion.it/__connectionpool_error__/,5
https://oggitreviso.it/__connectionpool_error__/,5
https://genteditalia.org/__client_error__/,5
https://ilsussidiario.net/__client_error__/,5
https://studiocataldi.it/__connectionpool_error__/,5
https://armstrongeconomics.com/__client_error__/,5
https://studenticontroilgreenpass.it/__connectionpool_error__/,5
https://romanews.eu/__client_error__/,5
https://quotidianodellumbria.it/__connectionpool_error__/,5
https://lavorofisco.it/__connectionpool_error__/,5
https://cna.it/__client_error__/,5
https://ideeazione.it/__client_error__/,5
https://nih.gov/__client_error__/,6
https://greenground.it/__connectionpool_error__/,6
https://agi.it/__connectionpool_error__/,6
https://policymakermag.it/__connectionpool_error__/,6
https://romatoday.it/__connectionpool_error__/,6
https://sport.sky.it/__connectionpool_error__/,6
https://oup.com/__client_error__/,6
https://cutt.ly/__connectionpool_error__/,6
https://quotidianodipuglia.it/__connectionpool_error__/,6
https://occhionotizie.it/__connectionpool_error__/,6
https://gov.il/__client_error__/,6
https://adrreports.eu/__connectionpool_error__/,6
https://positanonews.it/__connectionpool_error__/,6
https://corrieredelveneto.corriere.it/__connectionpool_error__/,6
https://giornalenews.it/__connectionpool_error__/,6
https://facebook.com/__client_error__/,6
https://tecnicadellascuola.it/__connectionpool_error__/,6
https://wiley.com/__client_error__/,6
https://mattinopadova.gelocal.it/__connectionpool_error__/,6
https://kmetro0.it/__connectionpool_error__/,6
https://lavocedigenova.it/__client_error__/,6
https://regioni.it/__connectionpool_error__/,6
https://photos.app.goo.gl/__connectionpool_error__/,6
https://hdblog.it/__connectionpool_error__/,6
https://medicomunicare.it/__connectionpool_error__/,6
https://punto-informatico.it/__connectionpool_error__/,6
https://telequattro.medianordest.it/__connectionpool_error__/,6
https://streetnews.it/__client_error__/,6
https://santalex.eu/__client_error__/,6
https://voxnews.info/__connectionpool_error__/,6
https://cdc.gov/__client_error__/,6
https://agenziastampaitalia.it/__connectionpool_error__/,6
https://ristorazioneitalianamagazine.it/__connectionpool_error__/,6
https://bellunopress.it/__client_error__/,6
https://qds.it/__connectionpool_error__/,6
https://marcoferriero.it/__connectionpool_error__/,6
https://radioroma.it/__connectionpool_error__/,6
https://bologna.repubblica.it/__connectionpool_error__/,6
https://ragusaoggi.it/__connectionpool_error__/,6
https://ristorazioneitalianamagazine.it/__client_error__/,6
https://catanzaroinforma.it/__connectionpool_error__/,7
https://milannews.it/__client_error__/,7
https://cittadiariano.it/__connectionpool_error__/,7
https://stampalibera.it/__client_error__/,7
https://ogginotizie.eu/__connectionpool_error__/,7
https://washingtonpost.com/__connectionpool_error__/,7
https://gayburg.com/__connectionpool_error__/,7
https://tristemondo.it/__connectionpool_error__/,7
https://ilfattoquotidiano.it/__client_error__/,7
https://startmag.it/__connectionpool_error__/,7
https://agendadigitale.eu/__connectionpool_error__/,7
https://paper.li/__client_error__/,7
https://quotidianopiemontese.it/__connectionpool_error__/,7
https://esteri.it/__connectionpool_error__/,7
https://nuovavenezia.gelocal.it/__connectionpool_error__/,7
https://pagineromaniste.com/__connectionpool_error__/,7
https://orizzontescuola.it/__client_error__/,7
https://volleynews.it/__connectionpool_error__/,7
https://strisciarossa.it/__connectionpool_error__/,7
https://orticaweb.it/__connectionpool_error__/,7
https://mag24.es/__connectionpool_error__/,7
https://quotidianpost.it/__connectionpool_error__/,7
https://ondanews.it/__connectionpool_error__/,7
https://video.lastampa.it/__connectionpool_error__/,7
https://editorialedomani.it/__connectionpool_error__/,7
https://ilparagone.it/__connectionpool_error__/,7
https://difesapopolo.it/__connectionpool_error__/,7
https://ultimora.news/__connectionpool_error__/,8
https://mentinfuga.com/__client_error__/,8
https://lopinionista.it/__connectionpool_error__/,8
https://ilparagone.it/__client_error__/,8
https://primabergamo.it/__connectionpool_error__/,8
https://casilinanews.it/__connectionpool_error__/,8
https://gazzettinodelchianti.it/__connectionpool_error__/,8
https://mediaset.it/__client_error__/,8
https://stabiachannel.it/__connectionpool_error__/,8
https://momentosera.it/__connectionpool_error__/,8
https://ripartelitalia.it/__connectionpool_error__/,8
https://siciliatv.org/__client_error__/,8
https://ippocrateorg.org/__client_error__/,8
https://toscanaoggi.it/__connectionpool_error__/,8
https://radioaldebaran.it/__connectionpool_error__/,8
https://politico.eu/__client_error__/,8
https://prpchannel.com/__client_error__/,8
https://corrierequotidiano.it/__connectionpool_error__/,8
https://ipsoa.it/__connectionpool_error__/,8
https://informazionelibera.org/__connectionpool_error__/,8
https://gazzettadimilano.it/__connectionpool_error__/,8
https://ilmeteo.it/__connectionpool_error__/,8
https://primonumero.it/__connectionpool_error__/,8
https://ilgiorno.it/__connectionpool_error__/,9
https://unotvweb.it/__client_error__/,9
https://napolitan.it/__connectionpool_error__/,9
https://gazzettinodelgolfo.it/__connectionpool_error__/,9
https://limemagazine.eu/__client_error__/,9
https://shar.es/__connectionpool_error__/,9
https://informazione.it/__client_error__/,9
https://tribunatreviso.gelocal.it/__connectionpool_error__/,9
https://lacitta.eu/__client_error__/,9
https://astigov.it/__connectionpool_error__/,9
https://ragusanews.com/__connectionpool_error__/,9
https://everyeye.it/__client_error__/,9
https://laboratoriopoliziademocratica.blogspot.com/__connectionpool_error__/,9
https://ilmetropolitano.it/__connectionpool_error__/,9
https://egit.it/__client_error__/,9
https://teleischia.com/__connectionpool_error__/,9
https://rosea.it/__client_error__/,9
https://pointofnews.it/__connectionpool_error__/,9
https://informazionecattolica.it/__connectionpool_error__/,9
https://periodicodaily.com/__connectionpool_error__/,10
https://borderline24.com/__connectionpool_error__/,10
https://chiesa-cattolica.it/__client_error__/,10
https://paper.li/__connectionpool_error__/,10
https://scomunicando.it/__client_error__/,10
https://lantidiplomatico.it/__connectionpool_error__/,10
https://anief.org/__connectionpool_error__/,10
https://vitawebtv.it/__client_error__/,10
https://wsj.com/__client_error__/,10
https://libreidee.org/__connectionpool_error__/,10
https://lavocedisansevero.it/__connectionpool_error__/,10
https://cagliarilivemagazine.it/__connectionpool_error__/,10
https://professionedocente.com/__client_error__/,10
https://ilmessaggero.it/__connectionpool_error__/,10
https://itenovas.com/__connectionpool_error__/,10
https://ladysilvia.com/__connectionpool_error__/,10
https://wam.ae/__connectionpool_error__/,11
https://secolo-trentino.com/__client_error__/,11
https://liberoquotidiano.it/__client_error__/,11
https://teleradio-news.it/__connectionpool_error__/,11
https://notizie.it/__connectionpool_error__/,11
https://iltempo.it/__client_error__/,11
https://greenpass.news/__client_error__/,11
https://newsweek.com/__client_error__/,11
https://nuovogiornalenazionale.com/__client_error__/,12
https://romasociale.com/__client_error__/,12
https://quotidianodiragusa.it/__connectionpool_error__/,12
https://genova24.it/__connectionpool_error__/,12
https://jamanetwork.com/__client_error__/,12
https://milanofinanza.it/__connectionpool_error__/,12
https://astigov.it/__client_error__/,12
https://lavocediasti.it/__connectionpool_error__/,12
https://contropiano.org/__client_error__/,12
https://corriere.it/__client_error__/,12
https://corrieredibologna.corriere.it/__connectionpool_error__/,12
https://amref.it/__connectionpool_error__/,13
https://salernonotizie.it/__connectionpool_error__/,13
https://italiaviva.it/__client_error__/,13
https://lapiazzaweb.it/__connectionpool_error__/,13
https://medicalfacts.it/__client_error__/,13
https://ilnordestquotidiano.it/__client_error__/,13
https://miglioverde.eu/__connectionpool_error__/,13
https://app.24newsonline.it/__connectionpool_error__/,13
https://latina.biz/__connectionpool_error__/,13
https://telenicosia.it/__connectionpool_error__/,13
https://agimeg.it/__connectionpool_error__/,13
https://lifestyleblog.it/__client_error__/,14
https://savonanews.it/__connectionpool_error__/,14
https://lercio.it/__client_error__/,14
https://ansa.it/__client_error__/,14
https://ilnazionale.it/__connectionpool_error__/,14
https://mediasetplay.mediaset.it/__connectionpool_error__/,14
https://ilgiornaledellazio.it/__client_error__/,14
https://sciencedirect.com/__client_error__/,15
https://tellonym.me/__client_error__/,15
https://ilfattoquotidiano.it/__connectionpool_error__/,15
https://today.it/__connectionpool_error__/,16
https://farodiroma.it/__connectionpool_error__/,16
https://sanremonews.it/__connectionpool_error__/,16
https://parliamodi.news/__connectionpool_error__/,16
https://lametino.it/__connectionpool_error__/,16
https://google.com/__connectionpool_error__/,16
https://mondoprofessionisti.it/__connectionpool_error__/,16
https://sanitainsicilia.it/__connectionpool_error__/,16
https://numero6.org/__client_error__/,17
https://lanazione.it/__connectionpool_error__/,17
https://tecnoandroid.it/__connectionpool_error__/,17
https://ilgiunco.net/__connectionpool_error__/,17
https://milano.corriere.it/__connectionpool_error__/,18
https://antennatre.medianordest.it/__connectionpool_error__/,18
https://lastampa.it/__client_error__/,18
https://gazzettinodelchianti.it/__client_error__/,18
https://tp24.it/__connectionpool_error__/,18
https://lanuovapadania.it/__client_error__/,19
https://italiaoggi.it/__connectionpool_error__/,19
https://zerounotv.it/__connectionpool_error__/,19
https://telemia.it/__connectionpool_error__/,20
https://ilrestodelcarlino.it/__connectionpool_error__/,20
https://ask.fm/__connectionpool_error__/,20
https://rainews.it/__connectionpool_error__/,20
https://apsnynews.com/__client_error__/,20
https://childrenshealthdefense.org/__client_error__/,20
https://notizie.tiscali.it/__connectionpool_error__/,21
https://cnbc.com/__client_error__/,21
https://agcult.it/__client_error__/,21
https://jpost.com/__client_error__/,21
https://ilsicilia.it/__connectionpool_error__/,21
https://saluteh24.com/__connectionpool_error__/,21
https://quotidianpost.it/__client_error__/,21
https://ilcittadino.it/__connectionpool_error__/,22
https://newsbiella.it/__connectionpool_error__/,22
https://spreaker.com/__client_error__/,22
https://lavocedialba.it/__connectionpool_error__/,23
https://agenziagiornalisticaopinione.it/__connectionpool_error__/,23
https://abruzzoweb.it/__connectionpool_error__/,24
https://rassegnastampa.news/__client_error__/,24
https://corrieresalentino.it/__client_error__/,24
https://italpress.com/__connectionpool_error__/,24
https://flip.it/__connectionpool_error__/,24
https://italiaatavola.net/__connectionpool_error__/,24
https://jamma.tv/__connectionpool_error__/,25
https://gazzettadellaspezia.it/__connectionpool_error__/,25
https://l.facebook.com/__connectionpool_error__/,25
https://imperianews.it/__connectionpool_error__/,25
https://cronachediscienza.it/__client_error__/,25
https://stranotizie.it/__connectionpool_error__/,26
https://quotidianodelsud.it/__connectionpool_error__/,26
https://orizzontescuola.it/__connectionpool_error__/,26
https://affaritaliani.it/__connectionpool_error__/,26
https://ilfaroonline.it/__connectionpool_error__/,26
https://bmj.com/__client_error__/,27
https://borderline24.com/__client_error__/,27
https://altervista.org/__client_error__/,27
https://ilmoderatore.it/__connectionpool_error__/,28
https://lavocedigenova.it/__connectionpool_error__/,28
https://targatocn.it/__connectionpool_error__/,28
https://sky.tg/__client_error__/,29
https://ilnapolista.it/__client_error__/,29
https://secondopianonews.it/__connectionpool_error__/,29
https://ansa.it/__connectionpool_error__/,30
https://renovatio21.com/__connectionpool_error__/,30
https://irpiniatimes.it/__connectionpool_error__/,31
https://iss.it/__connectionpool_error__/,31
https://secoloditalia.it/__connectionpool_error__/,31
https://it.sputniknews.com/__connectionpool_error__/,32
https://blitzquotidiano.it/__connectionpool_error__/,32
https://tpi.it/__client_error__/,34
https://gedix.info/__connectionpool_error__/,34
https://ilnordestquotidiano.it/__connectionpool_error__/,36
https://messaggeroveneto.gelocal.it/__connectionpool_error__/,37
https://lavocedelpatriota.it/__client_error__/,37
https://telecitynews24.it/__client_error__/,37
https://investing.com/__client_error__/,38
https://rtvslo.si/__client_error__/,38
https://newsmondo.it/__connectionpool_error__/,38
https://primocanale.it/__connectionpool_error__/,38
https://vivereinsardegna.it/__connectionpool_error__/,39
https://torinoggi.it/__connectionpool_error__/,39
https://f7td5.app.goo.gl/__connectionpool_error__/,39
https://quotidianosanita.it/__connectionpool_error__/,39
https://politicanews.it/__connectionpool_error__/,41
https://la7.it/__connectionpool_error__/,43
https://ilsicilia.it/__client_error__/,44
https://ilsole24ore.com/__connectionpool_error__/,47
https://adnkronos.com/__connectionpool_error__/,50
https://yahoo.com/__client_error__/,50
https://twib.in/__connectionpool_error__/,50
https://amazon.it/__client_error__/,51
https://repubblica.it/__client_error__/,53
https://mitomorrow.it/__connectionpool_error__/,54
https://m.dagospia.com/__connectionpool_error__/,55
https://wolterskluwer.eu/__client_error__/,56
https://smorfiadigitale.it/__client_error__/,56
https://scuolainforma.it/__client_error__/,57
https://vk.com/__client_error__/,57
https://h24.news/__client_error__/,58
https://facebook.com/__connectionpool_error__/,59
https://giornaleradio.fm/__connectionpool_error__/,60
https://politicanews.it/__client_error__/,61
https://sinistrainrete.info/__client_error__/,66
https://livesicilia.it/__connectionpool_error__/,67
https://corriere.it/__connectionpool_error__/,68
https://iconanews.it/__connectionpool_error__/,71
https://msn.com/__client_error__/,72
https://lastampa.it/__connectionpool_error__/,76
https://sabinopaciolla.com/__client_error__/,80
https://lapressa.it/__connectionpool_error__/,82
https://trib.al/__connectionpool_error__/,86
https://professionedocente.com/__connectionpool_error__/,87
https://buff.ly/__connectionpool_error__/,111
https://tinyurl.com/__connectionpool_error__/,111
https://giornoenotte.news/__connectionpool_error__/,112
https://is.gd/__connectionpool_error__/,115
https://ow.ly/__connectionpool_error__/,120
https://byoblu.com/__connectionpool_error__/,128
https://globalist.it/__connectionpool_error__/,128
https://destradipopolo.net/__client_error__/,142
https://ilprimatonazionale.it/__client_error__/,150
https://gloo.it/__client_error__/,200
https://zazoom.it/__connectionpool_error__/,203
https://wordpress.com/__client_error__/,226
https://instagram.com/__client_error__/,392
https://sbircialanotizia.it/__connectionpool_error__/,408
https://ilgiornale.it/__client_error__/,436
https://t.me/__client_error__/,480
https://bit.ly/__connectionpool_error__/,1041
https://dlvr.it/__connectionpool_error__/,1453
https://ift.tt/__connectionpool_error__/,1552
