id,link_url_to_expand,expanded_url
1433360827223089156,https://amiciamici.com/,https://amiciamici.com/__client_error__/
1433904825578762244,https://amiciamici.com/,https://amiciamici.com/__connectionpool_error__/
1435841239367225345,https://bit.ly/direttaunomattinaestatetwitter/,https://bit.ly/__connectionpool_error__/
1445377345334956032,https://bit.ly/3fvj7oi/,https://bit.ly/__connectionpool_error__/
1442790227484061699,https://ilgiornale.it/news/cronache/incitamenti-violenza-telegram-chiude-i-canali-no-vax-1978234.html/,https://ilgiornale.it/__client_error__/
1435263734834999301,https://ilgiornale.it/news/politica/frenata-dellema-sui-vaccini-divide-nuovamente-i-virologi-1973111.html/,https://ilgiornale.it/__client_error__/
1439503111924682757,https://ilgiornale.it/news/cronache/green-pass-auschwitz-procedimento-disciplinare-contro-1976256.html/,https://ilgiornale.it/__client_error__/
1436853646940065798,https://ilgiornale.it/news/politica/certificato-aprile-e-vaccini-record-danimarca-oggi-abolisce-1974441.html/,https://ilgiornale.it/__client_error__/
1442782634816454663,https://ilgiornale.it/news/cronache/incitamenti-violenza-telegram-chiude-i-canali-no-vax-1978234.html/,https://ilgiornale.it/__connectionpool_error__/
1439340115793436686,https://ilgiornale.it/news/cronache/green-pass-auschwitz-procedimento-disciplinare-contro-1976256.html/,https://ilgiornale.it/__connectionpool_error__/
1434390199149150213,https://ilgiornale.it/news/politica/frenata-dellema-sui-vaccini-divide-nuovamente-i-virologi-1973111.html/,https://ilgiornale.it/__connectionpool_error__/
1436560085539557377,https://ilgiornale.it/news/politica/certificato-aprile-e-vaccini-record-danimarca-oggi-abolisce-1974441.html/,https://ilgiornale.it/__connectionpool_error__/
1440591739350257669,https://italiaviva.it/greenpass_cultura/,https://italiaviva.it/__client_error__/
1440595146282733573,https://italiaviva.it/greenpass_cultura/,https://italiaviva.it/__connectionpool_error__/
1432960042312085506,https://paper.li/albertomarkini/1407937870/,https://paper.li/__client_error__/
1433657196928196610,https://paper.li/thodra/1445630483/,https://paper.li/__client_error__/
1433202713605644291,https://paper.li/rassstampa/1410191705/,https://paper.li/__client_error__/
1433294794210562050,https://paper.li/thodra/1445630483/,https://paper.li/__connectionpool_error__/
1438033224396050432,https://paper.li/albertomarkini/1407937870/,https://paper.li/__connectionpool_error__/
1435014714300502017,https://paper.li/rassstampa/1410191705/,https://paper.li/__connectionpool_error__/
1445370702614474759,https://bit.ly/3fvj7oi/,https://paypal.com/__connectionpool_error__/
1434464472253485061,https://quidestveritas.site/,https://quidestveritas.site/__client_error__/
1442188330096074765,https://quidestveritas.site/,https://quidestveritas.site/__connectionpool_error__/
1433306609292296198,https://bit.ly/direttaunomattinaestatetwitter/,https://raiplay.it/__connectionpool_error__/
