v_comm,TAG,count
0,UNC,156
0,Media,4
0,Dem,3
0,Rep,63
0,PolActivist,1
0,conspiracy,1
0,Ind,1
0,Conservative,8
0,Journalist,23
1,UNC,364
1,Media,5
1,Ind,1
1,Dem,33
1,Rep,31
1,Journalist,119
1,blog,1
1,Activist,1
10,Conservative,1
10,Dem,4
10,Journalist,13
10,Rep,3
10,UNC,80
11,UNC,14
11,Journalist,4
12,UNC,3
13,UNC,7
14,UNC,8
14,Conservative,1
14,Rep,1
15,UNC,3
16,UNC,2
17,UNC,6
18,UNC,9
18,Dem,1
18,Journalist,1
19,Dem,2
19,UNC,21
19,Journalist,4
2,Journalist,11
2,UNC,54
2,Dem,1
20,UNC,2
21,Journalist,4
21,UNC,19
22,UNC,2
22,Dem,1
23,Dem,1
23,UNC,1
23,Journalist,1
24,UNC,3
25,Journalist,1
25,UNC,3
26,UNC,3
27,UNC,1
27,Journalist,3
28,Journalist,1
28,UNC,1
29,Rep,1
29,UNC,1
29,Dem,1
3,Conservative,1
3,Rep,1
3,UNC,46
3,Journalist,15
3,Dem,4
30,Journalist,1
30,UNC,1
31,UNC,3
32,UNC,2
33,UNC,2
33,Journalist,1
34,UNC,2
34,Journalist,1
35,UNC,4
36,UNC,4
37,UNC,2
4,Journalist,15
4,Dem,1
4,UNC,50
5,Rep,2
5,UNC,23
5,Journalist,1
6,Conservative,2
6,Dem,1
6,Rep,20
6,Journalist,2
6,UNC,28
7,Rep,3
7,UNC,125
7,Dem,5
7,Journalist,10
8,Dem,1
8,UNC,2
8,Journalist,2
9,Journalist,3
9,UNC,16
9,Rep,1
