Id,Label,v_verified,v_screen_name,v_name,user_id,v_comm,Degree,screen_name,TAG,description
n570,n570,TRUE,ThePlumLineGS,20508720,20508720,1,260.0,ThePlumLineGS,blog,A blog about politics politics and politics
n665,n665,TRUE,ddale8,225265639,225265639,1,242.0,ddale8,Journalist,Reporter for CNN fact-checking the president and other politicians.
n1144,n1144,TRUE,Nate_Cohn,463765807,463765807,1,229.0,Nate_Cohn,Journalist,I write for The New York Times at @UpshotNYT. I cover elections polling and demographics. Northwest expat.
n1128,n1128,TRUE,jeneps,45399148,45399148,1,222.0,jeneps,Journalist,Political reporter at Bloomberg News covering the Biden campaign and Democrats jepstein32@bloomberg.net
n912,n912,TRUE,JTHVerhovek,298109087,298109087,1,222.0,JTHVerhovek,Journalist,Political Reporter for @ABC covering 2020 | @Georgetown grad | Of the PNW Seahawks Mariners Kraken enthusiast | john.h.verhovek@abc.com
n447,n447,TRUE,JonLemire,182398325,182398325,1,186.0,JonLemire,Journalist,White House reporter for @AP. Political analyst for @MSNBC & @NBCNews. Ex-@NYDailyNews. Dad husband of @carriemelago Red Sox fan. Email: JLemire@ap.org
n887,n887,TRUE,atrupar,288277167,288277167,1,178.0,atrupar,Journalist,journalist @voxdotcom
n43,n43,TRUE,TrumpWarRoom,1108472017144201216,1108472017144201216,0,175.0,TrumpWarRoom,Rep,Highlighting @realDonaldTrump's #PromisesKept fighting #FakeNews. This account punches back 10x harder. Managed by the #TeamTrump 2020 campaign. #MAGA
n1165,n1165,TRUE,ByronYork,47739450,47739450,0,172.0,ByronYork,Rep,OBSESSION: INSIDE THE WASHINGTON ESTABLISHMENT'S NEVER-ENDING WAR ON TRUMP out 9/8/20. Chief political correspondent Washington Examiner. Fox News contributor.
n435,n435,TRUE,kaitlancollins,180107694,180107694,1,171.0,kaitlancollins,Journalist,CNN White House Correspondent
n469,n469,TRUE,davidfrum,18686907,18686907,1,168.0,davidfrum,Rep,Author Trumpocalypse: Restoring American Democracy. Read more at The Atlantic. Reach me via http://DavidFrum.com
n169,n169,TRUE,NBCNews,14173315,14173315,1,166.0,NBCNews,Media,News updates from around the 🌎 all day every day. Home of @NBCBLK @NBCLatino @NBCAsianAmerica @NBCOUT & more.
n1261,n1261,TRUE,JackPosobiec,592730371,592730371,0,164.0,JackPosobiec,Rep,Veteran. Catholic. Father.
n1279,n1279,TRUE,DanScavino,620571475,620571475,0,164.0,DanScavino,Rep,Personal Twitter Account. Currently serving in the Trump Administration.
n1473,n1473,TRUE,RichardGrenell,90480218,90480218,0,162.0,RichardGrenell,Rep,I’m stronger after cancer. my dog runs my life. imperfect follower of Christ. https://www.instagram.com/richardgrenell
n847,n847,TRUE,joncoopertweets,27493883,27493883,1,162.0,joncoopertweets,Dem,#TeamJoe. Formerly Majority Leader of Suffolk County Legislature (NY); National Finance Chair of Draft Biden 2016; Long Island Campaign Chair for @BarackObama.
n1135,n1135,TRUE,TimMurtaugh,45676731,45676731,0,162.0,TimMurtaugh,Rep,Director of Communications for @realDonaldTrump 2020 re-election campaign.
n317,n317,TRUE,thedailybeast,16012783,16012783,1,162.0,thedailybeast,Media,Independent. Intelligent. Influential. Send tips to tips@thedailybeast.com.Become a member: https://bit.ly/BeastMembership
n1342,n1342,TRUE,TeamTrump,729676086632656900,729676086632656900,0,161.0,TeamTrump,Rep,The official Twitter account for the Trump Campaign. Together we will MAKE AMERICA GREAT AGAIN! 🇺🇸
n33,n33,TRUE,JasonMillerinDC,1084375028,1084375028,0,161.0,JasonMillerinDC,Rep,Principal SHW Partners LLC. @realDonaldTrump 2020 Senior Advisor. 2016 Senior Communications Advisor Transition Team Communications Director. 2 Timothy 1:7.
n1521,n1521,TRUE,pkcapitol,997684836,997684836,1,159.0,pkcapitol,Journalist,Washington Post congressional reporter devotee of Philly sports Springsteen and all things UD Fightin' Blue Hens.
n502,n502,TRUE,seungminkim,19186003,19186003,1,159.0,seungminkim,Journalist,White House reporter for @washingtonpost covering Trump and the Hill. @CNN political analyst proud @politico alum. Email: seungmin.kim@washpost.com
n1137,n1137,TRUE,BreitbartNews,457984599,457984599,0,158.0,BreitbartNews,Media,News commentary and destruction of the political/media establishment.
n654,n654,TRUE,Mike_Pence,22203756,22203756,0,154.0,Mike_Pence,Rep,Vice President of the United States
n47,n47,TRUE,GOP,11134252,11134252,0,150.0,GOP,Rep,Text TWITTER to 80810 to receive exclusive updates from the Republican National Committee!
n1334,n1334,TRUE,TheDemCoalition,713839291210792960,713839291210792960,1,149.0,TheDemCoalition,Dem,We help run #TheResistance and established the #ImpeachmentTaskForce. We campaign for Dems fight foreign influence & have unrivaled online organizing program.
n1199,n1199,TRUE,IngrahamAngle,50769180,50769180,0,149.0,IngrahamAngle,Rep,Mom author host The Ingraham Angle 10p ET @FoxNews. Retweets do not = Endorsements
n1083,n1083,TRUE,JDiamond1,407396556,407396556,1,148.0,JDiamond1,Journalist,@CNN White House Correspondent | jeremy.diamond@cnn.com
n1065,n1065,TRUE,DonaldJTrumpJr,39344374,39344374,0,147.0,DonaldJTrumpJr,Rep,EVP of Development & Acquisitions The @Trump Organization Father Outdoorsman In a past life Boardroom Advisor on The Apprentice
n1491,n1491,TRUE,ScottPresler,931286316,931286316,0,147.0,ScottPresler,Rep,I helped defeat Hillary & organized the Baltimore cleanup. Republicans need 18 seats to flip the House. Focus on voter registration. http://ScottPresler.org
n582,n582,TRUE,newtgingrich,20713061,20713061,0,143.0,newtgingrich,Rep,Husband father grandfather citizen small businessman author former Speaker of the House.
n116,n116,TRUE,BillStepien,1277439038077784064,1277439038077784064,0,143.0,BillStepien,Rep,DJTFP 2016. DJTFP 2020. White House in the in-between years. Campaign Manager. @realDonaldTrump
n1051,n1051,TRUE,marklevinshow,38495835,38495835,0,141.0,marklevinshow,Rep,THIS IS THE OFFICIAL MARK LEVIN SHOW TWITTER PAGE. DOWNLOAD MY PODCAST FOR FREE http://www.marklevinshow.com/audio-rewind
n1063,n1063,TRUE,DailyCaller,39308549,39308549,0,141.0,DailyCaller,Journalist,The journalists who love America.
n540,n540,TRUE,sahilkapur,19847765,19847765,1,138.0,sahilkapur,Journalist,National political reporter at @NBCNews / sahil.kapur@nbcuni.com / DMs open
n123,n123,TRUE,RealKyleMorris,129571843,129571843,0,135.0,RealKyleMorris,Journalist,Political reporter for @BreitbartNews. Roll Tide! Opinions are my own. kmorris@breitbart.com
n369,n369,TRUE,RyanAFournier,166751745,166751745,0,133.0,RyanAFournier,Rep,Founder and Co-Chairman of @TrumpStudents / Turning Point Action / Ephesians 4:32 📧 press@ryanfournier.com
n902,n902,TRUE,charliekirk11,292929271,292929271,0,133.0,charliekirk11,Rep,Founder & President—@TPUSAChair—@TrumpStudentsHost—The Charlie Kirk ShowAuthor—'The MAGA Doctrine’We are all sinners saved by JesusOpinions here are my own
n1383,n1383,TRUE,JennaEllisEsq,778763106289758208,778763106289758208,0,132.0,JennaEllisEsq,Rep,Constitutional Law Attorney. Senior Legal Adviser @TeamTrump and Counsel to @realDonaldTrump. Senior Fellow @Falkirk_Center. Special Counsel @ThomasMoreSoc.
n289,n289,TRUE,MattWolking,15725659,15725659,0,131.0,MattWolking,Rep,Deputy Director of Communications - Rapid Response for @realdonaldtrump’s 2020 campaign. 🇺🇸 first!
n1187,n1187,TRUE,JoyAnnReid,49698134,49698134,1,127.0,JoyAnnReid,Dem,"""You must be bold brave and courageous and find a way... to get in good trouble."" -John Lewis #TheReidOut ❤️ #reiders (RTs/likes are not always endorsements)"
n1214,n1214,TRUE,IvankaTrump,52544275,52544275,0,126.0,IvankaTrump,Rep,Wife mother sister daughter. Advisor to POTUS on job creation + economic empowerment workforce development & entrepreneurship. Personal Pg. Views are my own
n1417,n1417,TRUE,WhiteHouse,822215673812119553,822215673812119553,0,125.0,WhiteHouse,Rep,Welcome to @WhiteHouse! Follow for the latest from President @realDonaldTrump and his Administration. Tweets may be archived: http://whitehouse.gov/privacy
n205,n205,TRUE,jaketapper,14529929,14529929,1,125.0,jaketapper,Journalist,"Dad husband CNN Anchor of @TheLeadCNN and @CNNSOTU. ""Jake Tapper...I know; you don't like him. Who likes him? Who the hell can like him?"" - President Trump"
n1365,n1365,TRUE,EliStokols,75939860,75939860,1,124.0,EliStokols,Journalist,White House reporter @latimes. @MSNBC political analyst. Alum of @wsj @politico @kdvr
n313,n313,TRUE,Amy_Siskind,15976705,15976705,1,123.0,Amy_Siskind,Activist,Activist feminist author. The Weekly List website podcast https://t.co/tsD5bH0kXa & book. POLITICO 50. Pres of @TheNewAgenda. Fmr Wall Street exec. She/her 🏳️‍🌈
n696,n696,TRUE,ShaneGoldmacher,23232204,23232204,1,122.0,ShaneGoldmacher,Journalist,New York Times national political reporter Ex-@NYTMetro @POLITICO @NationalJournal and @latimes. SF Giants fan. shane.goldmacher@nytimes.com
n1442,n1442,TRUE,costareports,86129724,86129724,1,119.0,costareports,Journalist,National Political Reporter @WashingtonPost; Moderator & Managing Editor @PBS @WashingtonWeek; Political Analyst @NBCNews and @MSNBC
n1423,n1423,TRUE,elinashirazi,835992487,835992487,0,119.0,elinashirazi,Journalist,"@FoxNews multimedia reporter ""God does not call the qualified. He qualifies the called.”  American-Iranian"
n861,n861,TRUE,BillKristol,2800581040,2800581040,1,119.0,BillKristol,Rep,Director https://t.co/PWRcR3IxJj; https://t.co/rZ0MeS48gh; https://t.co/axNpiMlS38. Editor at large https://t.co/2a4u3o8vGm. Host https://t.co/2cRflRmz1y. Never Trump
n888,n888,TRUE,matthewjdowd,288363743,288363743,1,118.0,matthewjdowd,Dem,Proud Pop Proud Independent Chief Political Analyst ABC News; Founder CountryOverParty; Author A New Way: Embracing the Paradox as We Lead and Serve.
n681,n681,TRUE,CortesSteve,229141520,229141520,0,117.0,CortesSteve,Rep,Trump 2020 Campaign Senior Advisor for Strategy. Voice of the Deplorables. Happy warrior. Hispanic. Born for a storm.
n1270,n1270,TRUE,AndrewHClark,60403024,60403024,0,116.0,AndrewHClark,Rep,Rapid Response Director | @RealDonaldTrump 2020 Campaign @TeamTrump + @TrumpWarRoom
n754,n754,TRUE,JoeConchaTV,245441097,245441097,0,116.0,JoeConchaTV,Journalist,Media reporter The Hill. Also provide analysis & opinions on TV. Husband of Jean. Dad of Cameron & Liam & Chase. RTs may or may not be endorsements.
n344,n344,TRUE,AliVelshi,16378486,16378486,1,113.0,AliVelshi,Journalist,"Host MSNBC “Velshi” Sat/Sun 8-10aET & ""The Last Word"" Fri 10pET. I actually AM a Kenyan-born Muslim. Eml pandemic stories/photos/videos to mystory@velshi.com"
n1120,n1120,TRUE,DNCWarRoom,4486093643,4486093643,1,110.0,DNCWarRoom,Dem,Official Twitter Account for @TheDemocrats War Room.
n1408,n1408,TRUE,svdate,807975026,807975026,1,109.0,svdate,Rep,White House correspondent at HuffPost. Trump America and 2020 -- ON SALE NOW: The Useful Idiot: http://amzn.to/3hLT7ze.
n263,n263,TRUE,JenniferJJacobs,15433452,15433452,1,107.0,JenniferJJacobs,Journalist,Sr. White House reporter for Bloomberg News / @business. Reporting what I know not what I think. jjacobs68@bloomberg.net 💕Iowa
n456,n456,TRUE,jacobkschneider,18501983,18501983,0,105.0,jacobkschneider,Rep,Deputy Director of Rapid Response for @realDonaldTrump’s campaign @TeamTrump @TrumpWarRoom | Minnesotan @bethelu grad Twins fan
n202,n202,TRUE,brianstelter,14515799,14515799,1,104.0,brianstelter,Rep,Anchor of @ReliableSources and @CNN's chief media correspondent. My book HOAX the untold story of Trump and Fox News is out Aug 25. Email: bstelter@gmail.com
n1140,n1140,TRUE,chuckwoolery,462104542,462104542,0,103.0,chuckwoolery,Conservative,Hollywood Conservative Love Connection Host Back in Two and Two Fisherman Navy Vet Political Activist. Host of Blunt Force Truth w/ @markyoungtruth
n1,n1,TRUE,AZachParkinson,1006482620,1006482620,0,101.0,AZachParkinson,Rep,Deputy Director of Communications - Research for @realDonaldTrump 2020. Former @WhiteHouse & @RNCResearch Alum. Proud Marylander.
n1460,n1460,TRUE,ErinMPerrine,89068115,89068115,0,101.0,ErinMPerrine,Rep,Director of Press Communications @realdonaldtrump & @TeamTrump 2020 | Proud @UConn alum | WNY native and #BillsMafia everyday
n266,n266,TRUE,nedryun,15455253,15455253,0,99.0,nedryun,Conservative,Conservative Christian. Love @BeccaRyun. Dad of 4. Jayhawk. CEO @AM_National @VoterGravity. For media: becca@ryunmedia.com. @theamgreatness Senior Fellow.
n672,n672,TRUE,Acosta,22771961,22771961,1,99.0,Acosta,Journalist,CNN’s Chief WH Correspondent. Author of NYT Bestseller “The Enemy of the People.” Winner of NY Press Club “Truth to Power” award. I believe in #realnews
n357,n357,TRUE,robbystarbuck,16523905,16523905,0,99.0,robbystarbuck,Rep,Director and Producer • Free Thinker • Prod. Co. Owner • Married to @iMatriarch • Proud Dad • Cuban American🇺🇸 • Host @GrowUpLive
n617,n617,TRUE,JoeNBC,21619519,21619519,1,99.0,JoeNBC,Ind,“Darkness cannot drive out darkness. Only light can do that. Hate cannot drive out hate. Only love can do that.” ~MLK
n217,n217,TRUE,WashTimes,14662354,14662354,0,98.0,WashTimes,Media,Reliable reporting hard-hitting analysis & breaking news plus RTs from our writers and reporters. Also at @WashTimesOpEd @WashTimesLocal @WashTimesSports
n579,n579,TRUE,ChrisDJackson,20640982,20640982,1,98.0,ChrisDJackson,Dem,Dad Husband Local Elected Official Fmr. State Director @YEOnetwork Fmr. Dem. Party Chair '20 DNC/@JoeBiden Platform Committee Member Science Believer
n821,n821,TRUE,LouDobbs,26487169,26487169,0,98.0,LouDobbs,Ind,Lou Dobbs Tonight Fox Business Network 5 7 & 10 pm Eastern                         http://LouDobbsShop.com
n1163,n1163,TRUE,ChuckCallesto,4765364386,4765364386,0,96.0,ChuckCallesto,Rep,Father and Former Candidate for Florida's 3rd Congressional District | #FLO3 | Talent Scout | Manager | Looking hard at #2022 | R/T's Not Endorsements |
n1493,n1493,TRUE,JoeBiden,939091,939091,1,96.0,JoeBiden,Dem,Senator Vice President 2020 candidate for President of the United States husband to @DrBiden proud father & grandfather. Loves ice cream aviators & @Amtrak
n969,n969,TRUE,thejtlewis,3310061541,3310061541,0,95.0,thejtlewis,Rep,School Safety Advocate. @teamtrump
n793,n793,TRUE,alipardo,25339271,25339271,0,91.0,alipardo,Rep,Deputy Comms Director - Press for @TeamTrump. #FloridaMan. Amateur Northerner. Professional Dog Lover. #CapitolHill & @GW_Softball Alum.
n1433,n1433,TRUE,GeorgePapa19,850507814023942144,850507814023942144,0,90.0,GeorgePapa19,Rep,📚 Best selling author of “DEEP STATE TARGET: How I got caught in the crosshairs of the plot to bring down President Trump” available now on amazon ⬇️
n270,n270,TRUE,katieglueck,154985728,154985728,1,89.0,katieglueck,Journalist,National politics reporter at @nytimes covering 2020. Katie.glueck@nytimes.com
n77,n77,TRUE,yashar,11744152,11744152,1,89.0,yashar,Journalist,New York Magazine/HuffPost Contributor Email: currentyashar@gmail.com Direct Messages Open Text/Call/Signal/Confide/WhatsApp: 310-795-2497. Agents: UTA
n324,n324,TRUE,charliespiering,16113700,16113700,0,88.0,charliespiering,Journalist,White House Correspondent for Breitbart News formerly a Washington Examiner writer reporter for Robert Novak and Wyoming farm kid
n1012,n1012,TRUE,Cernovich,358545917,358545917,0,87.0,Cernovich,conspiracy,Watch the Plot Against the President!
n449,n449,TRUE,DeanObeidallah,18320938,18320938,1,84.0,DeanObeidallah,Journalist,Host: The Dean Obeidallah show @SXMProgress channel 127 6-9PMET. Lawyer.Columnist: @thedailybeast @CNNOpinion Host: @Salon Talks#StayANGRY
n154,n154,TRUE,CNNPolitics,13850422,13850422,1,84.0,CNNPolitics,Media,Political news campaign stories and Washington coverage from CNN Politics.
n1236,n1236,TRUE,RNCResearch,55329156,55329156,0,83.0,RNCResearch,Dem,#MAGA. Official RNC Research acct. Follow for latest on Democrats pundits & Trump's accomplishments. Subscribe to our YouTube page: https://goo.gl/oryp5i
n895,n895,TRUE,DiamondandSilk,2908170952,2908170952,0,83.0,DiamondandSilk,PolActivist,President Donald J Trump's Most Loyal Supporters Host of  Crystal Clear on Newsmax TV Fox Nation Host Diamond & Silk- The Podcast and Best Selling Authors
n896,n896,TRUE,EpochTimes,29097819,29097819,0,83.0,EpochTimes,Media,An independent award-winning voice in print & online. Integrity & truthfulness in reporting. Email Sign up: http://ept.ms/–Newsletters
n1415,n1415,TRUE,WattersWorld,819334191624101888,819334191624101888,0,82.0,WattersWorld,Media,Watch Saturdays at 8p ET on @FoxNews with host @jessebwatters
n508,n508,TRUE,KBeds,192970470,192970470,1,82.0,KBeds,Dem,Deputy Campaign Manager and Communications Director for @JoeBiden. Mama. Wife to the fabulous @David_K_Kieve.
n108,n108,TRUE,neeratanden,125453969,125453969,1,82.0,neeratanden,Dem,President of @amprog-Center for American Progress liberal Indian American feminist mom wife. Not in that order. Views expressed are most definitely my own.
n254,n254,TRUE,DavidCornDC,15220768,15220768,1,82.0,DavidCornDC,Journalist,D.C. bureau chief of Mother Jones MSNBC analyst & author (with @Isikoff) of the NYT No. 1 best-selling book RUSSIAN ROULETTE.
n240,n240,TRUE,bdomenech,14989516,14989516,0,80.0,bdomenech,Dem,You can tell a man’s vices by his friends his virtues by his enemies.
n703,n703,TRUE,HeidiNBC,234186830,234186830,1,80.0,HeidiNBC,Journalist,"NBC News Correspondent covering politics/government ethics""Prezbella""    Heidi.Przybyla@nbcuni.com Insta: @hprzybyla       Michigan (Spartan)"
n1468,n1468,TRUE,AmericaFirstPAC,898218643888197632,898218643888197632,0,80.0,AmericaFirstPAC,Rep,America First Action is dedicated to supporting President Trump | We are the only Official Pro-Trump Super PAC | READ: https://american-herald.com/
n1470,n1470,TRUE,Yamiche,89887215,89887215,1,79.0,Yamiche,Journalist,@PBS @NewsHour White House correspondent. @NBCNews & @MSNBC contributor. Formerly of @NYTimes & @USATODAY. Email: yamiche@newshour.org
n604,n604,TRUE,ZekeJMiller,21316253,21316253,1,79.0,ZekeJMiller,Journalist,White House Reporter @AP.
n742,n742,TRUE,JoshShapiroPA,24209167,24209167,1,77.0,JoshShapiroPA,Dem,Attorney General of Pennsylvania • Dad to 4 • Married to my high school sweetheart
n761,n761,TRUE,washingtonpost,2467791,2467791,1,76.0,washingtonpost,Media,Democracy Dies in Darkness.
n1223,n1223,TRUE,Annakhait,534881613,534881613,0,75.0,Annakhait,Conservative,Follower of Jesus🙏🏼- Forgiven and REDEEMED- Animal Lover - Conservative - Patriot 🇺🇸 - Instagram: @realannakhait
n1404,n1404,TRUE,nytimes,807095,807095,1,75.0,nytimes,Media,News tips? Share them here: http://nyti.ms/2FVHq9v
n1480,n1480,TRUE,DineshDSouza,91882544,91882544,0,73.0,DineshDSouza,Rep,"""Trump Card"" is an exposé of the socialism corruption and gangsterization that now define the Democratic Party. Available on DVD and VOD now."
n109,n109,TRUE,JHoganGidley,125740073,125740073,0,73.0,JHoganGidley,Rep,Christ alone. National Press Secretary Donald J. Trump for President Inc. Frmr Principal Dep. Press Secretary President Trump etc. Instagram: @jhogangidley
n177,n177,TRUE,funder,14247236,14247236,1,73.0,funder,Rep,Co-Founder @TheDemCoalition. @DworkinReport podcast host. My books: @mtc2020series. Investigator who helped expose #TrumpRussia. Obama alum. #TheResistance
n479,n479,TRUE,AmyKremer,18822612,18822612,0,72.0,AmyKremer,Rep,Chair @america1stwomen; co-founder @womenfortrump PAC; former #TeaParty Express & #Delta Flight Attendant; #gapol #gagop #MAGA #womenfortrump #nra
n785,n785,TRUE,kimguilfoyle,25101996,25101996,0,71.0,kimguilfoyle,Rep,Mother Sister Patriot Proud American. National Chair of Trump Victory Finance Committee 2020 and Senior Advisor to @TeamTrump 🇺🇸
n822,n822,TRUE,ARmastrangelo,26520948,26520948,0,69.0,ARmastrangelo,Journalist,first-generation American / @BreitbartNews reporter / @JohnCarrollU alumna / all opinions are mine
n648,n648,TRUE,jimsciutto,22129280,22129280,1,69.0,jimsciutto,Rep,CNN Anchor & Chief Nat Sec Correspondent Author “The Madman Theory: Trump Takes on the World” https://www.harpercollins.com/9780063005693/the-madman-theory/
n950,n950,TRUE,SethAbramson,3223426134,3223426134,1,69.0,SethAbramson,Journalist,Attorney. Professor. Metajournalist. NYT bestselling author. @Newsweek columnist seen @CNN @BBC @HBO @CBS + others. Podcaster. NEW: https://t.co/ydwKsp42bR #AFOL
n151,n151,TRUE,trish_regan,138182116,138182116,0,68.0,trish_regan,Journalist,Award winning journalist Fearless defender of TRUTH. Speaker Pres of new media co http://TrishIntel.com Get my DAILY pod here: https://apple.co/342OhYE
n1382,n1382,TRUE,ryanjreilly,7768402,7768402,1,67.0,ryanjreilly,Journalist,@HuffPost justice reporter (DOJ et al.). raising kids w/ @jreillydc. DMs open. signal/whatsapp: 202.527.9261 ryan.reilly@huffpost.com 🚲
n38,n38,TRUE,laralogan,1098091506886471680,1098091506886471680,0,66.0,laralogan,Journalist,Investigative journalist winner of Alfred I duPont–Columbia Uni Silver Baton multiple Emmys Edward R. Murrow Awards // Lara Logan Has No Agenda on @foxnation
n207,n207,TRUE,shearm,14552725,14552725,1,65.0,shearm,Rep,White House Correspondent for The New York Times CNN Political analyst  and co-author of “BORDER WARS: Inside Trump’s Assault on Immigration”
n1368,n1368,TRUE,BorisEP,76543481,76543481,0,65.0,BorisEP,Rep,@realdonaldtrump 2020 Strategic Advisor former Special Assistant to POTUS Comms Director - Trump Inaugural Battle for 1600 Podcast - http://apple.co/32f7y7G
n145,n145,TRUE,AaronBlake,136300373,136300373,1,65.0,AaronBlake,Journalist,Senior political reporter writing for The Fix at The Washington Post. aaron.blake@washpost.com
n623,n623,TRUE,Carrasquillo,21688902,21688902,1,64.0,Carrasquillo,Dem,National political reporter @Newsweek covering Biden | Reporting the Latino political story | @sanbenito scholar |Send me scoops 👇🏽a.carrasquillo@newsweek.com
n1335,n1335,TRUE,albamonica,71584155,71584155,0,62.0,albamonica,Journalist,@NBCNews Political Reporter covering the White House & 2020 campaign. @USC/@columbiajourn/@NBCinvestigates alum monica.alba@nbcuni.com
n1152,n1152,TRUE,CheriJacobus,467726691,467726691,1,59.0,CheriJacobus,Rep,"#Biden2020 #NeverTrump Exec Producer ""America Reads The Mueller Report"" https://politicswithcherijacobus.libsyn.com/"
n927,n927,TRUE,JohnWMcCarthy,30657398,30657398,1,57.0,JohnWMcCarthy,Dem,"Deputy National Political Director for @JoeBiden | ☘️ 🇺🇸  “A pleasure to have in class"" - Third Grade Report Card St. Ann School"
n1287,n1287,TRUE,MariannaNBCNews,627643516,627643516,1,56.0,MariannaNBCNews,Dem,2020 campaign embed @NBCNews covering Joe Biden • Formerly reporting from Capitol Hill • Florida bred & Peruvian food fed • Insta 📸: mariannasotomayor
n481,n481,TRUE,DrEricDing,18831926,18831926,1,56.0,DrEricDing,Dem,Epidemiologist & Health Economist. Senior Fellow FAS. Spent 16 yrs @HarvardChanSPH. @Harvard & @JohnsHopkins alum. #COVID19 updates since Jan’20. Vote @JoeBiden
n1233,n1233,TRUE,cliffordlevy,54885334,54885334,1,55.0,cliffordlevy,Journalist,Associate Managing Editor and Metro Editor @nytimes. Former head of digital platforms Moscow bureau chief and investigative reporter.
n778,n778,TRUE,MollyNagle3,2501984838,2501984838,1,54.0,MollyNagle3,Journalist,2020 Campaign Reporter for @ABC | Proud Alumna of @Illinois_Alma | @NHLBlackhawks Fanatic. RT ≠ Endorsements Molly.F.Nagle@abc.com / Mnagle7@protonmail.com
n1327,n1327,TRUE,rebeccaballhaus,705706292,705706292,1,53.0,rebeccaballhaus,Journalist,@WSJ White House reporter
n829,n829,TRUE,AJDelgado13,266894776,266894776,1,52.0,AJDelgado13,Rep,lawyer via @harvard_law; former Sr Advisor to Trump 😒; made w/ Cuban parts; proud mami of 4 rescue dogs & 1 human boy Will 💙 (my sun & stars!) #3:16
n728,n728,TRUE,JoshNBCNews,23911915,23911915,1,51.0,JoshNBCNews,Journalist,National political reporter @NBCNews • Teach @NorthwesternU • Lover of fountain soda and overcast weather • Arizona native
n631,n631,TRUE,kathrynw5,21786220,21786220,1,51.0,kathrynw5,Journalist,White House reporter @CBSNews digital. “Unrepentant candy corn apologist.” Tweets all politics junk food and audiobooks. kathryn.watson@cbsi.com DM for Signal
n1386,n1386,TRUE,alfloresd,784568246,784568246,10,50.0,alfloresd,Journalist,Journalist @UniLuiss Journalism School @Zeta_Luiss  @repubblica @espressonline @JSKstanford
n89,n89,TRUE,RonnyJackson4TX,1201953403099893760,1201953403099893760,0,49.0,RonnyJackson4TX,Rep,Conservative Republican for Congress in #TX13 | Former White House Physician & Retired Navy Rear Admiral | Texan Veteran Physician Leader
n12,n12,TRUE,ColbyItkowitz,103927659,103927659,1,48.0,ColbyItkowitz,Journalist,National politics reporter at Washington Post. Past: The Morning Call CQ http://washingtonpost.com/pb/colby-itkow…
n80,n80,TRUE,NBCPolitics,11856032,11856032,1,48.0,NBCPolitics,Journalist,Political news from the journalists across @NBCNews @MSNBC @TodayShow @NBCNightlyNews @MeetThePress @NBCInvestigates and more.
n501,n501,TRUE,thehill,1917731,1917731,1,47.0,thehill,Journalist,The Hill is the premier source for policy and political news. Follow for tweets on what's happening in Washington breaking news and retweets of our reporters.
n1434,n1434,TRUE,jeffzeleny,85131054,85131054,1,47.0,jeffzeleny,Rep,CNN Senior Washington Correspondent covering President Trump the vast field of 2020 Democratic hopefuls and the state of politics in America.
n839,n839,TRUE,BoKnowsNews,2717961126,2717961126,1,46.0,BoKnowsNews,Dem,@CBSNews 2020 campaign reporter following @JoeBiden. Has lots of questions. ericksonb@cbsnews.com 📞 On Signal or DM.
n1346,n1346,TRUE,AndrewBatesNC,734768872625188864,734768872625188864,1,46.0,AndrewBatesNC,Dem,Director of Rapid Response for @JoeBiden. Winston-Salem native and @NCState alum. Before: @BarackObama @ObamaWhiteHouse @HillaryClinton @American_Bridge.
n1037,n1037,TRUE,EricLiptonNYT,375662595,375662595,1,45.0,EricLiptonNYT,Rep,Investigative reporter NYT. Helping cover President Trump and the Trump administration-without fear or favor. I write about people and power.
n804,n804,TRUE,nickconfessore,258885469,258885469,1,45.0,nickconfessore,Journalist,Reporter for @NYTimes staff writer at @NYTmag @MSNBC political analyst.
n921,n921,TRUE,michpoligal,30289355,30289355,1,45.0,michpoligal,Journalist,New York Times correspondent former political reporter for the Detroit Free Press. Spartan fan. Aspiring chef.
n584,n584,TRUE,TimOBrien,20742461,20742461,1,45.0,TimOBrien,Rep,Columnist @bopinion. Priors: New York Times Wall Street Journal HP. Alum: @Mike2020. Author: “TrumpNation.”
n111,n111,TRUE,kimKBaltimore,1259714432,1259714432,0,44.0,kimKBaltimore,Rep,Republican Congressional Nominee in MD-District 7. ProTrump. Anti-Squad. Zero Tolerance for Corruption. TERM LIMITS no lifelong pensions. Vote 🗳 Nov 3rd
n61,n61,TRUE,sarahmucha,1141039176,1141039176,1,43.0,sarahmucha,Dem,Covering @JoeBiden and the 2020 election for @CNN. Pulitzer Prize-reading journalist. 🇵🇱 @georgetownsfs alum | sarah.mucha@cnn.com
n167,n167,TRUE,aravosis,14146966,14146966,1,43.0,aravosis,Rep,Dem. digital mktg/advocacy. Editor @AMERICAblog. Gtown JD/MSFS. Past: UN | The Economist | Senate | World Bank. Called wacko by Rush RT’d by Trump. SP/FR/IT/GR
n697,n697,TRUE,marceelias,23281108,23281108,1,42.0,marceelias,Dem,Lawyer fighting for Democrats and voting rights for all.Democracy Docket Founder.My dog's name is Bode.
n340,n340,TRUE,JamesKosur,1633058688,1633058688,1,42.0,JamesKosur,Rep,Senior Adviser @ReallyAmerican1 | Political strategist who's done working in the shadows. If you've seen an anti-Trump trend I was likely involved.
n514,n514,TRUE,RSLC,19405365,19405365,0,41.0,RSLC,Rep,The Republican State Leadership Committee is the largest national organization focused on electing Republicans to state offices in every corner of the nation.
n1437,n1437,TRUE,apantazi,85743617,85743617,1,41.0,apantazi,Journalist,reporter @jaxdotcom since 2013 | I love my wife and two sons. | saved by grace | Jax native | want a union? DM me | @timesunionguild co-chair
n1277,n1277,TRUE,Fahrenthold,61734492,61734492,1,39.0,Fahrenthold,Rep,Washington Post reporter covering President Trump's businesses and conflicts of interest. MSNBC contributor. If you don't want it printed don't let it happen.
n1125,n1125,TRUE,_cingraham,452521774,452521774,4,39.0,_cingraham,Journalist,Washington Post data reporter. Born-again Minnesotan. Cricket guy. Proud @PostGuild member. Author of If You Lived Here You'd Be Home By Now.
n1043,n1043,TRUE,MarkDiStef,37881687,37881687,4,38.0,MarkDiStef,Journalist,Reporter for The Information covering Europe and Amazon. Former FT & BuzzFeed. Reach me at mark@theinformation.com. DMs open ask me for my Signal 🇦🇺
n929,n929,TRUE,nomsa_maseko,309132441,309132441,4,38.0,nomsa_maseko,Journalist,Mom. Journalist. Motorsport enthusiast. I never freeze. In abusive relationships with #OrlandoPirates & #Arsenal Loves #ConverseChuckTaylor Made in Kwa-Thema
n1118,n1118,TRUE,chadterhune,443297726,443297726,4,38.0,chadterhune,Journalist,Health reporter @Reuters. Previously at WSJ LA Times KHN. #GirlDad @UFJSchool alum. Tips: 213-769-9125 chad.terhune@tr.com or DM for Signal
n796,n796,TRUE,nadiasdaly,255320178,255320178,4,38.0,nadiasdaly,Journalist,Journalist with @abc730 🎬 Via @CNN in Hong Kong and @euronews in France Got a story? Nadia.Daly@abc.net.au
n1284,n1284,TRUE,Millie__Weaver,624210678,624210678,0,38.0,Millie__Weaver,Journalist,Reporter & Journalist *MillennialMillie on Youtube* proud Christian ✝️ proud American🇺🇸 http://subscribestar.com/millieweaver
n1221,n1221,TRUE,sanjanakaranth,530853470,530853470,4,38.0,sanjanakaranth,Journalist,Reporter @HuffPost member @WGAEast & shop steward @HuffPostUnion. Previously @AP. Chicago 'til I die. Artie is my dog. She/her. sanjana.karanth@huffpost.com
n307,n307,TRUE,CelesteHeadlee,159065451,159065451,4,38.0,CelesteHeadlee,Journalist,Writer journalist professional speaker anchor. She/her. My book: https://bookshop.org/books/do-nothing-how-to-break-away-from-overworking-overdoing-and-under
n1196,n1196,TRUE,HenryPTPhoto,506602066,506602066,4,38.0,HenryPTPhoto,Journalist,Photojournalist at The Leaf-Chronicle in Clarksville TN | Helping Southerners understand their neighbors | he/him | UGAVJ Alum| Instagram: @henrytaylorphoto
n1220,n1220,TRUE,haydenjohnson94,529059415,529059415,4,38.0,haydenjohnson94,Journalist,News Corp journalist @CourierMail. Via Ipswich💰 Tassie ☃️ and Fraser Coast 🌴
n825,n825,TRUE,jparkABC,26596727,26596727,0,38.0,jparkABC,Journalist,@ABC Congressional & White House Reporter / Producer - husband to @salcary daddy to J.J. 😍 #baraboo
n347,n347,TRUE,josh_wingrove,164075542,164075542,0,37.0,josh_wingrove,Journalist,White House reporter Bloomberg News. Views are my own. e: jwingrove4@bloomberg.net insta: josh_wingrove
n962,n962,TRUE,JacobRubashkin,32616774,32616774,1,36.0,JacobRubashkin,Journalist,reporter & analyst for @InsideElections / formerly @NBCNews @cnn editor in chief @cornellsun / Beltway born and raised / say hello: jacob@insideelections.com
n117,n117,TRUE,scottpwaldman,127956843,127956843,1,36.0,scottpwaldman,Journalist,White House reporter focused on climate change @EENewsUpdates also appearing in @sciam. Prior: @PoliticoNY @timesunion SWaldman@EENews.net
n1307,n1307,TRUE,jepence,67064945,67064945,0,36.0,jepence,Rep,Husband of @giovannapence. Catholic. Senior Advisor for @realdonaldtrump 2020 Presidential Campaign. J.D. | M.B.A.
n392,n392,TRUE,glubold,17162499,17162499,10,35.0,glubold,Journalist,White House national security reporter @WSJ. a lot of people are saying I have a beautiful head of white hair gordon.lubold@wsj.com
n1117,n1117,TRUE,ReaganBattalion,4429709805,4429709805,10,35.0,ReaganBattalion,Conservative,Your source for news information and commentary from a conservative perspective.
n185,n185,TRUE,Sandra_Sully,142957691,142957691,10,35.0,Sandra_Sully,Journalist,📺🎙🗞 Journalist Senior Editor @10NewsFirst 📻Short Black Podcast - 🎧 http://aca.st/c7f5a9 |🏑🏑 HockeyAustralia 🏑 @SpinalCure | ClassicAgenda Heroes📚📸
n833,n833,TRUE,MichaelLaRosaDC,269314519,269314519,1,34.0,MichaelLaRosaDC,Dem,Spokesperson & Traveling Press Secretary for Jill Biden (@DrBiden) Fmr @HouseDPCC @SenatorCantwell TV 📺Producer @Hardball @MSNBC @BIGEAST🏊‍♂️@SHUSwimDive
n1455,n1455,TRUE,grace_panetta,88223320,88223320,1,34.0,grace_panetta,Journalist,Politics reporter covering elections & voting @businessinsider. Bad speller. Extremely New England. RTs/likes=👀not👍🏼 say hi/send tips to gpanetta@insider.com
n1092,n1092,TRUE,Kevinliptakcnn,41704988,41704988,1,34.0,Kevinliptakcnn,Journalist,@CNN White House reporter Kevin.Liptak@cnn.com
n155,n155,TRUE,mschlapp,138809881,138809881,0,33.0,mschlapp,Conservative,Dad to 5 angels husband to @mercedesschlapp as seen on the screen kansas American Conservative Union Chair @cpac Go Irish life is better on the farm
n1246,n1246,TRUE,gelliottmorris,57029492,57029492,1,33.0,gelliottmorris,Journalist,Data journalist @TheEconomist. Writing a book about polls and democracy @wwnorton (out fall 2021). My personal blog/newsletter: http://thecrosstab.substack.com
n227,n227,TRUE,tjmanotoc,14808309,14808309,10,31.0,tjmanotoc,Journalist,Journalist - ABS-CBN North America  News Bureau Chief 📺  Opinions ≠ ABS-CBN. MentalHealth / Wellness Advocate. Depression Disorder Survivor #YouWillBeAlright
n1244,n1244,TRUE,JasonLemon,565864573,565864573,10,31.0,JasonLemon,Journalist,Proudly #PureMichigan Beirut still feels like home. Senior reporter @Newsweek previously @AJC and @StepFeed
n17,n17,TRUE,ByEichler,1046659700,1046659700,10,31.0,ByEichler,Journalist,Journalist from the silent screen era / media & comms / found in @broadsheet_adel @citymagadl @indaily / formerly @thetiser
n818,n818,TRUE,LeslieMarshall,26350255,26350255,10,31.0,LeslieMarshall,Dem,Democratic Strategist @FoxNews Contributor & Opinion columnist Radio Host @Tedx speaker @Northeastern Ambassador http://instagram.com/lesliemarshalltalker
n766,n766,TRUE,hugolowell,2475407894,2475407894,1,30.0,hugolowell,Journalist,National political reporter recent for @Telegraph Daily Mail others. Get in touch: hugo.lowell@protonmail.com or DM for Signal.
n816,n816,TRUE,davidshepardson,26283307,26283307,4,30.0,davidshepardson,Journalist,@Reuters reporter in DC covering transportation aviation autos + (anything that moves) @fcc tech Pvs @DetroitNews Michigan native. Father of three husband
n1156,n1156,TRUE,CaraKorte,470540654,470540654,1,28.0,CaraKorte,Journalist,@CBSNews campaign reporter covering voting/election issues • Formerly embedded w/ @BernieSanders • Ohioan • Stick gloves shirt • kortec@cbsnews.com
n1405,n1405,TRUE,HCTrudo,807176238,807176238,1,27.0,HCTrudo,Dem,Politics reporter at @thedailybeast covering @JoeBiden since his launch. NH native. Send tips to Hanna.Trudo@thedailybeast.com http://instagram.com/hannactrudo
n138,n138,TRUE,NKingofDC,135515077,135515077,1,27.0,NKingofDC,Journalist,Longtime journalist formerly with the WSJ now on the outside. Colorado native living in DC. Founder and editor of @GothamCanoe. Happiest around water.
n135,n135,TRUE,schwartzbCNBC,1340997858,1340997858,0,27.0,schwartzbCNBC,Journalist,@CNBC Political Finance Reporter Dickinson College Grad. Thoughts are my own. Retweets are not endorsements.
n731,n731,TRUE,jennymedina,23979328,23979328,1,27.0,jennymedina,Journalist,New York Times national reporter covering 2020 politics from the West. Looking for Spanglish + zumba + hiphop on the trail. jemedina@nytimes.com
n803,n803,TRUE,lzakshorn,25834389,25834389,7,27.0,lzakshorn,Rep,TV Producer activist feminist Trump Hater dog lover and Mom to Zach Robinson. Pres/Mandeville Films TV
n1399,n1399,TRUE,EmmaKinery,803029068,803029068,1,27.0,EmmaKinery,Journalist,National political reporter covering 2020 for Bloomberg @business • send gossip to ekinery@bloomberg.net • Michigander
n1077,n1077,TRUE,djrothkopf,402888514,402888514,10,26.0,djrothkopf,Rep,"Proud father of J & L husband of C CEO TRG host Deep State Radio; next book-""Traitor: A History of American Betrayal from Benedict Arnold to Donald Trump."""
n983,n983,TRUE,JBNotes,33982772,33982772,7,26.0,JBNotes,Journalist,Writer. Editor. Publishing pro. 💻 📚📘📖📑Recovering journalist. ⌨️📲 I miss my🌈🐶🌈.Wake me when the Dumpster🔥 is over.
n618,n618,TRUE,maritaulvskog,21648649,21648649,7,26.0,maritaulvskog,Journalist,S-minister i 10 år; civil- sedan kulturminister tio år som EU-parlamentariker fem år som parti(s)ekreterare journalist f d chefredaktör på Dala-Demokraten.
n236,n236,TRUE,ScottKellum,14958412,14958412,7,26.0,ScottKellum,Dem,Co-founder and CEO of @Typetura.VOTE @joebidenBlack lives matter.Typetura: http://typetura.comPhotography: http://society6.com/scottkellumhe/him
n1272,n1272,TRUE,donnabrazile,60919240,60919240,0,26.0,donnabrazile,Dem,Former Chair Democratic National Committee (DNC). Adjunct Lecturer Georgetown. FOX News Contributor. King Lecture Chair at Howard University. @LSU graduate!
n1230,n1230,TRUE,ericbradner,54322823,54322823,1,26.0,ericbradner,Journalist,National political reporter for @CNN. Also here for 🏀 🏈 🏌️. #L1C4 #FlyTheW. Based in Chicago. eric.bradner@cnn.com.
n788,n788,TRUE,DJJudd,251983774,251983774,1,25.0,DJJudd,Rep,@CNNPolitics on Trump 2020 | I covered Buttigieg & IA | former @Princeton & @CBSPolitics | New Yorker by birth & stride | dj.judd@cnn.com | Instagram: dmjudd4
n333,n333,TRUE,jason_a_w,1622051,1622051,10,23.0,jason_a_w,Journalist,Journalist http://seedisclaimer.com dog guy/Portland everymanjason@jasonwilson.media (503) 852-2710
n459,n459,TRUE,glynmoody,18525497,18525497,7,23.0,glynmoody,Journalist,writer (Rebel Code) journalist blogger. on openness the commons copyright patents and digital rights.  email: glyn.moody@gmail.com; PGP: E4962A75
n1269,n1269,TRUE,johnpaulfarmer,603268288,603268288,7,23.0,johnpaulfarmer,Dem,Support Joe Biden: http://act.joebiden.com/BVFraiser?attr… Currently: CTO of NYC • Formerly @Microsoft @ColumbiaSIPA @ObamaWhiteHouse • Personal Account & Views
n774,n774,TRUE,RonaldKlain,248884036,248884036,10,21.0,RonaldKlain,Dem,Gen Counsel Revolution.  Biden 2020!  Ex-Ebola Czar Obama/Biden + Clinton/Gore WH.Married to @monicamedinadc; Dad of 3 adults. Tweets are my personal views.
n279,n279,TRUE,warrenmorgan,15639096,15639096,10,21.0,warrenmorgan,Dem,Former city council leader social democrat mostly commenting on UK and US politics and polling.
n613,n613,TRUE,adamgoldmanNYT,21534951,21534951,1,21.0,adamgoldmanNYT,Journalist,NYT reporter covering FBI and nat sec. Ex-WaPo & AP. goldmanadam@protonmail.com
n948,n948,TRUE,mirandadevine,32201297,32201297,0,21.0,mirandadevine,Journalist,Journalist wife mother dog-lover. Reformed mathematician. Sci fi nut. Truth-teller. @nypost @dailytelegraph
n34,n34,TRUE,CarolLeonnig,108710418,108710418,1,21.0,CarolLeonnig,Journalist,"Washington Post reporter MSNBC contributor finder of fact co-author ""A Very Stable Genius"" #1 NYT Bestseller. Have a story tip? carol.leonnig@washpost.com"
n1445,n1445,TRUE,bjrich_,865675081,865675081,1,21.0,bjrich_,Dem,National Press Secretary @DemocraticAGs | Alum: @GSPMgwu & @willamette_u | Seattle Sports | @JoslinSchultz’s lesser half | he/him | bi+ | tweets = mine
n1024,n1024,TRUE,ben_a_goldfarb,365438535,365438535,21,20.0,ben_a_goldfarb,Journalist,Independent journalist on the #roadecology beat. Author of EAGER an award-winning book about beaver belief: http://goo.gl/DQA1Qn
n734,n734,TRUE,caitlin_oh,24069833,24069833,21,20.0,caitlin_oh,Journalist,(she/her) Yorkshire-born photojournalist on O’odham land. Conspiring @juntosphoto. union @paythewriter. @photo_rights @womenphotograph @nppa
n445,n445,TRUE,JerryDunleavy,18170845,18170845,0,20.0,JerryDunleavy,Journalist,@DCExaminer DOJ Reporter — Faith Without Works Is Dead — The Dogma Lives Loudly — John 8:32 — AMDG — CLEVELAND — OHIO — JDunleavy@WashingtonExaminer.com
n345,n345,TRUE,yaelwrites,16396118,16396118,21,20.0,yaelwrites,Journalist,investigative tech reporter. privacy security digital freedom. semiphemeral autodeletes some tweets. she/her. #alwaysantifascist. yael@hey.com
n308,n308,TRUE,cmclymer,15907183,15907183,1,19.0,cmclymer,Dem,Writer. Lesbian. Army Vet. Texan. Hoya. She/Her. @TrumanProject '19. Rep: @lynnjohnstonlit Alum: @HRC Inquiries: cmclymer@gmail.com 🏳️‍🌈 #BLM #Biden2020
n516,n516,TRUE,grantstern,19422491,19422491,1,19.0,grantstern,Dem,Author @mtc2020series of books. @masksnoworg spox. Editor @OccupyDemocrats @TheSternFacts.#Miami native #HeatLifer @OnlyinMiamiShow. Still @morningsidemtg.
n1101,n1101,TRUE,mercedesschlapp,42670638,42670638,6,18.0,mercedesschlapp,Rep,Faith family country freedom. Senior Advisor for the Trump Pence campaign @realDonaldTrump @TeamTrump
n1303,n1303,TRUE,Douglas_Main,66021490,66021490,21,18.0,Douglas_Main,Journalist,writer journalist explorer naturalist & artist. diverse interests always learning. senior writer/editor @natgeo covering wildlife nature the environment
n168,n168,TRUE,tylerpager,14167059,14167059,1,18.0,tylerpager,Journalist,National Political Reporter Bloomberg News | Past: @nytimes @bostonglobe @politico @USATODAY | @UniofOxford @NorthwesternU alum | tpager1@bloomberg.net
n946,n946,TRUE,tvheidihatch,31852548,31852548,1,18.0,tvheidihatch,Journalist,Wife to a hunk Mom of 2 #KUTV2News Emmy winning Anchor/Reporter. Lover of Dark chocolate veggies politics running books sarcasm & Florida beach days.
n748,n748,TRUE,GeorgiaLogCabin,24431556,24431556,0,18.0,GeorgiaLogCabin,Rep,You don't have to be from Georgia to follow us! News for gay lesbian LGBT & straight Republicans conservatives libertarians independents & moderates #gagop
n1317,n1317,TRUE,thewadekeller,69524494,69524494,7,17.0,thewadekeller,Journalist,http://PWTorch.com founder & National Wrestling Hall of Fame Journalist - Host of Wade Keller Podcast kellerwade@gmail.com - Advocate For the Rule of Law.
n1452,n1452,TRUE,davidmweissman,880018682,880018682,1,17.0,davidmweissman,Rep,US Army Vet Former Trump Supporter Former Republican Liberal Democrat FL Steering Committee member @ProjectLincoln Jen Fanton’s boyfriend. #BidenHarris2020
n824,n824,TRUE,4lisaguerrero,265705962,265705962,7,16.0,4lisaguerrero,Journalist,Armed with a mic & lipgloss I chase badguys on TV. Award Winning Investigative Journalist Speaker Writer Actor Mosaic Artist LATINA. I block knuckleheads.
n864,n864,TRUE,ajjaffe,28049266,28049266,1,16.0,ajjaffe,Journalist,Lady reporter lady reporter. @AP_Politics. // Previously @vicenews @NBCPolitics @TheHill @CNNPolitics. Chi till I die.
n1504,n1504,TRUE,CNNnewsroom,9567972,9567972,1,15.0,CNNnewsroom,Journalist,Latest news and information updates from the anchors reporters and producers of CNN Newsroom 9 a.m. to 4 p.m. ET and weekends on CNN.
n700,n700,TRUE,OliviaTroye,2329492448,2329492448,1,15.0,OliviaTroye,Rep,Fmr Homeland Security CT & Covid Task Force Advisor to the @VP The truth hurts but silence kills. GOP voter for Biden after working in a Trump White House.
n786,n786,TRUE,ngameztorres,2511471793,2511471793,19,15.0,ngameztorres,Journalist,Periodista Cuba/US-Latam policy reporter for el Nuevo Herald & Miami Herald. PhD in sociology from City University of London. LSE alumna. RT≠endorsement
n677,n677,TRUE,AnitaCreamer,228178281,228178281,7,15.0,AnitaCreamer,Journalist,Comms gal. Writer & editor. Former reporter at SacBee and Dallas Morning News. CA by way of NOLA & TX.
n1086,n1086,TRUE,NiceDeb,40875530,40875530,6,15.0,NiceDeb,Conservative,Catholic conservative mom of six talking politics at American Greatness. Not necessarily always nice. Send me tips.
n765,n765,TRUE,jkbjournalist,24752038,24752038,1,15.0,jkbjournalist,Journalist,Miami Herald investigative reporter. Philly born. Eagles fan. Writing book on Jeffrey Epstein t/b published by @harpercollins & produced into series by @HBO.
n1224,n1224,TRUE,GabbyOrr_,536528296,536528296,11,14.0,GabbyOrr_,Journalist,White House Reporter @POLITICO. Send tips Italian recipes: gorr@politico.com.
n797,n797,TRUE,AidaAlami,255617540,255617540,11,14.0,AidaAlami,Journalist,Reporter who covers migration religion and human rights. Words in @nytimes and other places. @ColumbiaJourn alum. Recovering travel addict. Views are my own.
n398,n398,TRUE,T_S_P_O_O_K_Y,172511244,172511244,0,14.0,T_S_P_O_O_K_Y,Rep,Snarky bastard NYTs bestselling author ret Intel Operative President @theLCPR  Advising Producer-Chain of Command & Trump 2020 Advisory Board
n693,n693,TRUE,donie,230787751,230787751,1,14.0,donie,Journalist,Reporter @CNN || Covering disinformation politics and technology || Very Irish || donie.osullivan@turner.com || DM for cell/Signal
n1072,n1072,TRUE,aaronjcarpenter,397526755,397526755,0,14.0,aaronjcarpenter,Rep,City Councilman and youngest elected official in history of Marysville OH. Conservative Republican. BSME @OhioState alum @Honda engineer & proud Christian.
n1517,n1517,TRUE,terri_rupar,97946098,97946098,1,14.0,terri_rupar,Journalist,Tar Heel journalist. Working on politics and projects @washingtonpost.
n1046,n1046,TRUE,AFP,380648579,380648579,2,13.0,AFP,Journalist,Top news and features from AFP's reporters around the world. Elsewhere on Twitter: http://u.afp.com/AFPTwitter
n1256,n1256,TRUE,AllieRaffa,585350900,585350900,19,12.0,AllieRaffa,Journalist,@FoxNews 2020 Campaign Reporter • Former @FoxNewsSunday & @CBSMiami • 954➡️202➡️813➡️Campaign Trail • IG: @allie_raffa
n554,n554,TRUE,RichardCheese,20130123,20130123,7,12.0,RichardCheese,Dem,"Richard Cheese & Lounge Against The Machine🍸New ""NUMBERS OF THE BEAST"" album on sale!🍸Vote #BidenHarris to save America🇺🇸He/HimOpinions by @MJDinStereo"
n1263,n1263,TRUE,danbalz,59676104,59676104,1,12.0,danbalz,Journalist,Husband. Father. Happy Grandparent. Political Reporter @washingtonpost. Infrequent tweeter.
n943,n943,TRUE,ChrisMegerian,31532083,31532083,1,12.0,ChrisMegerian,Journalist,White House reporter for the Los Angeles Times. Previously covered the Russia investigation the 2016 campaign and Sacramento. Former Star-Ledger reporter.
n679,n679,TRUE,Weinsteinlaw,22879254,22879254,1,12.0,Weinsteinlaw,Dem,Chair @TheDemocrats Lawyers Council. @ObamaWhiteHouse appointee. @HolocaustMuseum Council member. Trial Lawyer. Music & Hockey Fan. #EndGunViolence #TeamJoe
n1338,n1338,TRUE,healybaum,720710699283046400,720710699283046400,6,12.0,healybaum,Rep,TV Analyst|International Adviser & Energy Consultant|Trump Giuliani 43 White House Senior Comms Vet|Media+Market Influencer|#BorntoWin
n1066,n1066,TRUE,EricTrump,39349894,39349894,0,12.0,EricTrump,Rep,Executive Vice President of The @Trump Organization. Husband to @LaraLeaTrump. Large advocate of @StJude Children's Hospital @TrumpWinery #MakeAmericaGreatAgain
n854,n854,TRUE,NicholasTrainer,27768163,27768163,6,12.0,NicholasTrainer,Rep,Director of Battleground Strategy @RealDonaldTrump | Formerly - @WhiteHouse @GOP @GovernorPerry @TimPawlenty @SenToomey | PA yinz/youse guys. Always PA.
n273,n273,TRUE,TonyKrvaric,15533337,15533337,6,12.0,TonyKrvaric,Rep,Entrepreneur and volunteer chairman of the Republican Party of San Diego County. Croatian by blood Swedish by birth American by choice! Proud Roman Catholic.
n378,n378,TRUE,WaPoSean,169586280,169586280,1,12.0,WaPoSean,Journalist,National politics reporter at The @washingtonpost covering the 2020 presidential race. @CBSNLive political contributor. Overly optimistic Seattle sports fan.
n644,n644,TRUE,HelenKennedy,2199541,2199541,5,12.0,HelenKennedy,Rep,Newspaperman (ex NY Daily News & Boston Herald). I had a Trump joke here but it suddenly stopped being funny. (helenkennedy@gmail)
n1036,n1036,TRUE,willkennedynews,373018957,373018957,5,12.0,willkennedynews,Journalist,Voice of the UWF Argos. Teacher. Recovering journalist. Politics education & sports takes.Opinions my own. RT not endorsement.
n834,n834,TRUE,NYTnickc,269448653,269448653,1,11.0,NYTnickc,Journalist,reporter for @nytimes; sandwich/taco/pizza pundit. #campaignfoodreport corasan@nytimes.com
n583,n583,TRUE,TheThomasGuide,20726800,20726800,6,11.0,TheThomasGuide,Rep,Political Ad Man Republican Strategist & co-founder of Blueflame fighting against COVID-19. 👍 CrossFit 🐕 & 🐎. Host's http://TheThomasGuide.com podcast.
n86,n86,TRUE,Harlan,119099353,119099353,6,11.0,Harlan,Rep,Book Author / as seen on @FoxNews @CNN @BBC etc / President @LCGpr / Advisory Board Member @RealDonaldTrump
n178,n178,TRUE,cam_joseph,142490217,142490217,2,11.0,cam_joseph,Journalist,Senior political reporter @vicenews covering 2020 and potential armageddon. Contributor @The_Almanac of American Politics. Bylined & large.
n964,n964,TRUE,jonathanvswan,327862439,327862439,1,11.0,jonathanvswan,Journalist,Reporter. jonathan@axios.com / jonathanvswan@protonmail.com
n148,n148,TRUE,feliciasonmez,137466464,137466464,1,11.0,feliciasonmez,Journalist,Washington Post national political reporter. Previously @wsj and @afp in Beijing. Email me at felicia.sonmez@washpost.com.
n280,n280,TRUE,AdamShawNY,1564967204,1564967204,0,11.0,AdamShawNY,Journalist,Politics reporter for @FoxNews. Former @BreitbartNews. 🇬🇧🇺🇸Adam.Shaw@FoxNews.com
n713,n713,TRUE,DavidNakamura,23621827,23621827,1,11.0,DavidNakamura,Journalist,Washington Post reporter.
n711,n711,TRUE,kyledcheney,23578274,23578274,1,11.0,kyledcheney,Journalist,Congress reporter for @POLITICO. Previously covered the 2016 campaign national politics and health care. Alum of Boston’s @statehousenews. NY ➡️ BOS ➡️ DC
n451,n451,TRUE,AdamParkhomenko,18382184,18382184,7,10.0,AdamParkhomenko,Dem,Democratic Strategist Consultant Political Adviser. Dad. Ukrainian-American. Whatever order son Cameron's my life. Moose & Simba. Join: http://BigStuff.us
n759,n759,TRUE,VinceLattanzio,24637436,24637436,4,10.0,VinceLattanzio,Journalist,Award-winning 💻 🎥 📸 Journalist @NBCPhiladelphia | Husband 👬 | RCHS & PhilaU alum | Proud Philly boy 🔔 | 📸 http://instagram.com/vincelattanzio/
n225,n225,TRUE,MichiganDems,14747825,14747825,3,10.0,MichiganDems,Dem,Official Twitter account of the Michigan Democratic Party. Chair @LavoraBarnes. Follow us for the latest MDP news and get involved at https://t.co/7fRrPsYBgS!
n1011,n1011,TRUE,ReedReports,358457157,358457157,10,10.0,ReedReports,Journalist,Congressional Reporter @Newsy @EWScrippsCo / Fmr. @MyNBC5 @NBCNews / RT ≠ endorsements. 📩 Nathaniel.Reed@protonmail.com
n1061,n1061,TRUE,hshaban,391560579,391560579,1,10.0,hshaban,Journalist,I’m a business reporter @WashingtonPost | hamza.shaban@washpost.com | Signal: 954-282-1654
n418,n418,TRUE,KFaulders,177028305,177028305,1,10.0,KFaulders,Journalist,Investigative reporter covering the White House & Capitol Hill for @ABC News. @UVA. Grams: kfaulders. DM for signal & kfaulders@protonmail.com
n93,n93,TRUE,BrianaKStewart,120929251,120929251,4,10.0,BrianaKStewart,Journalist,@ABC News Campaign Reporter Covering the U.S. 2020 Presidential Election • Have a tip? DM me!
n96,n96,TRUE,jenny4congress,1218203858104725511,1218203858104725511,6,10.0,jenny4congress,Rep,Conservative Republican Candidate for CD TX-35| Pro Life| Christian| Endometrial Cancer Survivor| Proud American| #2A #Trump2020 #WomenForTrump
n684,n684,TRUE,michelechollow,22950604,22950604,7,10.0,michelechollow,Journalist,Journalist focusing on health autism climate pets and wildlife. Writer author editor animal lover & traveler. #Binder #AHCJ member
n297,n297,TRUE,GiancarloSopo,1576268089,1576268089,6,10.0,GiancarloSopo,Rep,Rapid Response at @TeamTrump • Formerly @TheBlaze • 2019 @NR_Institute Regional Fellow • Made in America with Cuban parts • 🇺🇸🇨🇺 • Catholic • Views are mine
n238,n238,TRUE,bradleywyros,14965162,14965162,10,10.0,bradleywyros,Dem,#BlackLivesMatter. Singer of @veara. Partner. Father. Software dev. Interested in democratic elections despite my feelings about them. My thoughts.
n76,n76,TRUE,ScottShuey,11720652,11720652,7,10.0,ScottShuey,Journalist,Journalist. Geek. Formerly San Francisco Chicago and Dubai. Currently roaming about SE Asia.
n1001,n1001,TRUE,AskMrMickey,34947001,34947001,4,9.0,AskMrMickey,Journalist,Editorial Director Fat & All That ColumnistRoyalty Reporter for @papermagazine Humanitarian/Shopaholic
n756,n756,TRUE,haileybranson,24596887,24596887,1,9.0,haileybranson,Journalist,California reporter for the Los Angeles Times. Oklahoman. Mildly amusing.
n667,n667,TRUE,Oregon_GOP,2257140654,2257140654,6,9.0,Oregon_GOP,Rep,The official account of the Oregon Republican Party the Party of Freedom. Follows/RTs/Likes are not necessarily an endorsement. #MAGA #KAG
n1282,n1282,TRUE,CaliforniaPanda,62230014,62230014,6,9.0,CaliforniaPanda,Rep,@realDonaldTrump campaign & former @WhiteHouse Special Assistant to @POTUS. Ex @UFC. @NBA encyclopedia. Wrasslin’ aficionado. @CACReunion Member. Parler: Cheung
n1429,n1429,TRUE,SteveBoyer5000,844752451,844752451,7,9.0,SteveBoyer5000,Rep,Actor in @HustlersMovie @TrialAndError @NBCChicagoFire writer comedian musician environmentalist activist maker of pastas. #BlockedByTrump. Super Geenius
n352,n352,TRUE,kevindgrant,16467789,16467789,10,9.0,kevindgrant,Journalist,Co-founder & chief content officer @GroundTruth. VP @Report4America. MTC fellow @Poynter. Journalist fellow @USCCRCC. Midwesterner. Supporter of @USPS.
n911,n911,TRUE,PatStClaire,2976858754,2976858754,7,9.0,PatStClaire,Journalist,Veteran broadcast journalist at http://wabe.org. Love Atlanta & the beach. Wish the two could meet! I strive 2B balanced & fair.  Retweets are not endorsements.
n67,n67,TRUE,patrickdmarley,1155261757,1155261757,1,8.0,patrickdmarley,Journalist,Milwaukee Journal Sentinel politics and statehouse reporter.
n377,n377,TRUE,21WIRE,16936686,16936686,0,8.0,21WIRE,Journalist,Independent global affairs analyst journalist radio host TV broadcaster and fierce critic of mainstream media propaganda. https://21w.co/support
n744,n744,TRUE,davidwbrown,24233458,24233458,7,8.0,davidwbrown,Dem,Dad; Husband; IT consultant; tabletop/video gamer; Democratic Congressional Candidate NC5 (campaign @DWB4Congress)
n480,n480,TRUE,CahnEmily,18825339,18825339,18,8.0,CahnEmily,Journalist,Senior political reporter @AmerIndependent; @mic @rollcall #gwu @mashable alum; mom to baby girl Rosie 🌹 & @wally_the_toy_poodle 📸🐩
n489,n489,TRUE,ChrisMZiegler,18994549,18994549,6,8.0,ChrisMZiegler,Rep,GirlDad x3 | @FloridaGOP Vice Chairman | 2016 & 2020 @realDonaldTrump Electoral College Member | Recovering Hill Staffer | @Microtargeted Founder | America🥇
n717,n717,TRUE,NanHayworth,236541422,236541422,6,7.0,NanHayworth,Rep,First female MD to serve full term as Member of Congress. Trump 2020 Advisory Board. @IWF. Mom of 2 2-legged 4 4-legged kids :-) Native Hoosier. Love #Freedom
n559,n559,TRUE,AndreaWNYC,20253808,20253808,1,7.0,AndreaWNYC,Rep,Co-host Trump Inc. podcast from @WNYC & @ProPublica; NYT best-selling author: AMERICAN OLIGARCHS: The Kushners The Trumps and the Marriage of Money and Power
n1167,n1167,TRUE,JessieJaneDuff,478855762,478855762,6,7.0,JessieJaneDuff,Rep,Gunnery Sergeant Marine Corps ret | @TeamTrump Advisory Board Women for Trump | Co-Chair Veterans for Trump |@Newsmax Contributor http://Women.DonaldJTrump.com
n475,n475,TRUE,asmamk,187838951,187838951,1,7.0,asmamk,Dem,National political correspondent for @NPR covering Joe Biden (for now!) Co-host of the @nprpolitics podcast. akhalid@npr.org
n1142,n1142,TRUE,ec_schneider,462169232,462169232,1,7.0,ec_schneider,Journalist,@politico national political reporter formerly @nytimes @TexasTribune @MedillSchool. North Carolina native. Let's talk: eschneider@politico.com
n615,n615,TRUE,KDORR_USA,215885760,215885760,6,7.0,KDORR_USA,Rep,Chief Marketing Officer @RealDonaldTrump 2020. Former @WhiteHouse @USTreasury etc. King of Queens Fan Account. Dog Dad. Nerd. Personal Account. #MAGA
n442,n442,TRUE,MSignorile,18124790,18124790,1,7.0,MSignorile,Journalist,🏳️‍🌈 Host Michelangelo Signorile Show @SiriusXM @SXMProgress 3-6 ET M-F | journalist | commentator | best-selling author | Pit bull lover| mike@signorile.com
n641,n641,TRUE,akarl_smith,219011705,219011705,8,7.0,akarl_smith,Journalist,Political reporter @NBCNews. Ex-@businessinsider. email: Allan.Smith@nbcuni.com | smithaka2@protonmail.com
n428,n428,TRUE,RebeccaBuck,17881467,17881467,1,7.0,RebeccaBuck,Journalist,CNN Political Reporter | rebecca.buck@cnn.com
n1358,n1358,TRUE,DanielStrauss4,75600769,75600769,1,7.0,DanielStrauss4,Journalist,Senior political reporter @GuardianUS | daniel.strauss@theguardian.com | all the pieces matter
n1366,n1366,TRUE,FlaDems,76027332,76027332,1,7.0,FlaDems,Dem,The official Twitter account of the Florida Democratic Party. Voter Protection: 📲 (833) 868-3352 #MailTheVoteFL #SunshineSlate☀️
n657,n657,TRUE,American_Bridge,222481411,222481411,1,7.0,American_Bridge,Rep,Holding Republicans accountable. Join Us ➡️ https://bit.ly/3hudOiF
n256,n256,TRUE,jribas,15235581,15235581,2,6.0,jribas,Journalist,Video journalist @washingtonpost. Chicken coop builder. Retired Puppy Bowl referee. Jorge.Ribas@washpost.com
n630,n630,TRUE,Surabees,21784951,21784951,6,6.0,Surabees,Rep,Republican Strategist.
n1139,n1139,TRUE,MegJamesLAT,46179233,46179233,2,6.0,MegJamesLAT,Journalist,Los Angeles Times journalist; covering corporate media and the business of television. http://lat.ms/1jT3lHn
n643,n643,TRUE,gregsteube,21924842,21924842,0,6.0,gregsteube,Rep,Conservative Republican serving Florida’s 17th Congressional District
n1168,n1168,TRUE,SarahRahal_,479145838,479145838,3,6.0,SarahRahal_,Journalist,Reporter for @DetroitNews currently covering everything corona-related. Grown by Dearborn & @WayneState. Proudly🇱🇧🇺🇸
n1017,n1017,TRUE,AsteadWesley,362111287,362111287,1,6.0,AsteadWesley,Journalist,National politics reporter at The New York Times. CNN political analyst. Real one in these streets. astead.herndon@nytimes.com
n1164,n1164,TRUE,HirshSingh,47696738,47696738,6,6.0,HirshSingh,Rep,Jersey's Republican. #HirshSingh #forthepeople #RepublicansWin #ProTrump http://byebooker.com
n1420,n1420,TRUE,RepMikeJohnson,827279765287559171,827279765287559171,0,6.0,RepMikeJohnson,Rep,Proudly serving Louisiana's 4th Congressional District. Chairman of @RepublicanStudy. Member on @JudiciaryGOP & @NatResources. Constitutional law attorney.
n1329,n1329,TRUE,DCBMEP,70664947,70664947,6,6.0,DCBMEP,Conservative,Former Cons MEP for East of England. Inventor ‘SuperCanada’ U.K./EU Free Trade Agreement Ex Co-chair Conservatives for Britain. Pro Brexit. RTs NOT endorsements
n50,n50,TRUE,BarnettforAZ,1117898546055761920,1117898546055761920,0,6.0,BarnettforAZ,Rep,Republican candidate for Congressional District 7 in Arizona business owner family centered & a concerned citizen ready to fight for you. #PeopleOverPolitics
n416,n416,TRUE,Tanzeel_Akhtar,176108852,176108852,10,6.0,Tanzeel_Akhtar,Journalist,Investment journalist. Tweets about financial markets geopolitics fintech fx etfs tesla commodities crypto and cybersecurity.
n842,n842,TRUE,doctorow,2729061,2729061,4,6.0,doctorow,Journalist,Author journalist activist. My latest is ATTACK SURFACE https://us.macmillan.com/books/9781250757531 Books: http://craphound.com Blog: http://pluralistic.net
n687,n687,TRUE,DLCC,22975495,22975495,3,6.0,DLCC,Dem,The official account of the Democratic Legislative Campaign Committee the organization dedicated to winning state legislative seats and chambers for Democrats.
n647,n647,TRUE,TonyBrunoShow,22099513,22099513,6,6.0,TonyBrunoShow,Rep,50% of my posts are sarcasm 100% of the time. Unafraid. Troll Hunter Bot blocker and out of the closet Trump 2020 supporter. #BackTheBlue   #BackTheBlue
n1336,n1336,TRUE,fawfulfan,716813053,716813053,1,6.0,fawfulfan,Journalist,Game programmer breaking news reporter @RawStory devoted long-distance husband. Proudly on the spectrum. Personal account — opinions are my own.
n837,n837,TRUE,SabrinaSiddiqui,27055034,27055034,1,6.0,SabrinaSiddiqui,Journalist,National politics reporter @WSJ. Political analyst @CNN. Formerly @guardian & @huffpost. @MedillSchool alum. Instagram: sabrinasiddiqui Sabrina.Siddiqui@wsj.com
n1071,n1071,TRUE,FrancesAdcock,39701664,39701664,10,6.0,FrancesAdcock,Journalist,Olympian and journalist
n1075,n1075,TRUE,JoeGruters,40045792,40045792,6,6.0,JoeGruters,Rep,State Senator #FL23 Chairman of the Republican Party of Florida 2016 Florida Trump Co-Chairman CPA http://Gruterscpa.com
n1323,n1323,TRUE,CRNC,7039122,7039122,0,6.0,CRNC,Conservative,America's voice for young conservatives.
n183,n183,TRUE,NicoleSganga,1428908562,1428908562,1,5.0,NicoleSganga,Rep,CBS News reporter covering the Trump campaign || Girl on the bus || forever #nhpolitics @notredame @UniofOxford || Tips recipes haikus: sgangan@cbsnews.com
n1412,n1412,TRUE,RealSaavedra,812135885328236551,812135885328236551,6,5.0,RealSaavedra,Journalist,Reporter at @realDailyWire. Retweets ≠ endorsement.
n1209,n1209,TRUE,NewsGuyGreg,52065935,52065935,19,5.0,NewsGuyGreg,Journalist,Political Reporter for @MyNews13 Orlando (often @BN9 Tampa) • Tucker's Dad 🐶 • @CMUniversity Grad 🔥👆🏻• Aviation Nerd ✈️• Traveler 🌎 • RTs ≠ endorsements
n499,n499,TRUE,RobbieGramer,191298624,191298624,1,5.0,RobbieGramer,Journalist,Diplomacy/National Security Reporter @ForeignPolicy | Send tips hate mail to robbie.gramer[at]http://foreignpolicy.com robbiegramer[at]http://protonmail.com
n1207,n1207,TRUE,maxasteele,519025164,519025164,1,5.0,maxasteele,Rep,Senior Advisor for Comms @American_Bridge Trump War Room. Alum of @amyklobuchar @bob_casey @padems @fladems etc. Lapsed Florida Man.
n1211,n1211,TRUE,ZoeTillman,52392666,52392666,1,5.0,ZoeTillman,Journalist,Senior reporter @BuzzFeedNews covering courts justice and the intersection of law and politics. zoe.tillman@buzzfeed.com
n68,n68,TRUE,NickMiroff,115554440,115554440,1,5.0,NickMiroff,Journalist,Washington Post reporter covering immigration enforcement and the Department of Homeland Security. Former WP Latin America correspondent. Go Slugs
n83,n83,TRUE,LisaForCongress,1187551973173796866,1187551973173796866,0,5.0,LisaForCongress,Rep,Republican nominee for U.S. House of Representatives for Michigan's 10th District.
n1008,n1008,TRUE,timburchett,353890966,353890966,14,5.0,timburchett,Rep,Married to Kelly. Father to Isabel. Congressman representing #TN02 Former @KnoxGov Mayor. Former state legislator. Fiscally conservative Republican.
n574,n574,TRUE,melodybaetens,20548762,20548762,3,5.0,melodybaetens,Journalist,@DetroitNews restaurant critic/reporter. Feed me tips and entertainment story ideas: mbaetens@detroitnews.com. 📍@SmallsBar
n1309,n1309,TRUE,jonathanoosting,6798482,6798482,3,5.0,jonathanoosting,Journalist,It's pronounced oh-sting. Michigan politics reporter for @BridgeMichigan. Email joosting@bridgemi.com or reach out via DM Signal or WhatsApp.
n1186,n1186,TRUE,Elaijuh,49631876,49631876,27,5.0,Elaijuh,Journalist,The only Lai is in the byline. • Data & Democracy Reporter The Philadelphia Inquirer (voting rights elections &c.) • “…Liberty and Justice for all.”
n580,n580,TRUE,colvinj,20660342,20660342,1,5.0,colvinj,Journalist,White House reporter for The Associated Press (@AP). Reluctant Washingtonian. Night owl. Quiet car enforcer. @jeremyherb gave in on the puppy! jcolvin@ap.org.
n425,n425,TRUE,PAGOP,17813701,17813701,0,5.0,PAGOP,Rep,Official Twitter account of the Republican Party of Pennsylvania | #LeadRight
n850,n850,TRUE,kimberkoz,27568840,27568840,3,5.0,kimberkoz,Journalist,Higher Ed Reporter @DetroitNews; 2019 @EdWriters Reporting Fellow; 2009 @UMKnightWallace Fellow Got a story tip? Email me kimk@detroitnews.com
n1294,n1294,TRUE,robsfriedlander,633976799,633976799,1,5.0,robsfriedlander,Dem,Currently: Midwest Regional Comms Director for @joebiden. Formerly: @BetoORourke (x2) @BarackObama @USTreasury @ObamaWhiteHouse @amyklobuchar.
n73,n73,TRUE,AndrewSolender,1163618839,1163618839,1,5.0,AndrewSolender,Journalist,@Forbes reporter covering politics dollar store Michael Cera丨Past: @MSNBC丨@Vassar and @LSENews alum丨tips: asolender@forbes.com
n746,n746,TRUE,Frclemenceau,2431741206,2431741206,5,4.0,Frclemenceau,Rep,Redchef étranger @leJDD défense diplo ex-corres Washington & Jerusalem. Blog Trump Power on https://t.co/XBUwV5hDw2. Tweets n'engagent que moi. Trolls et insultes bloquées
n1276,n1276,TRUE,dwnews,6134882,6134882,2,4.0,dwnews,Journalist,We really know Germany 🇩🇪. Follow us for trustworthy news and analysis from our reporters around the world. We also have a sense of humor. Sometimes.
n239,n239,TRUE,zdroberts,14965418,14965418,8,4.0,zdroberts,Journalist,Photojournalist Nurphoto - Work featured in NYT Time AJ http://patreon.com/zdroberts Portfolio at http://ZDRoberts.comzdroberts@protonmail.com he/himhe/him
n379,n379,TRUE,reenaninan,169612620,169612620,10,4.0,reenaninan,Journalist,Journalist. Mom of 2. Co-Host @asklisapodcast. Host @itstherebound. Former: @cbsnews @abcnews @foxnews. Life-long @Buccaneers fan. Tennis + golf novice.
n1182,n1182,TRUE,ASchneider_HPM,490931304,490931304,10,4.0,ASchneider_HPM,Journalist,Politics & government reporter for @HoustonPubMedia. @NPR contributor. @UChicago alum. Author. Historian.
n98,n98,TRUE,BillforPA14,1223772796674871302,1223772796674871302,8,4.0,BillforPA14,Dem,Father/Husband 16 yr military Veteran Military Policeman Teacher Union Member. Democratic Congressional candidate for #PA14 - Donate: https://t.co/laiEx6rNrI
n1180,n1180,TRUE,AmandiOnAir,4900058284,4900058284,1,4.0,AmandiOnAir,Dem,All you need to know is that I love 🇺🇸 deeply and ask that if you do too please vote @joebiden on Nov. 3rd ... oh I also host #StrangeDaysPodcast
n686,n686,TRUE,JeremyDGoodwin,22958269,22958269,4,4.0,JeremyDGoodwin,Journalist,Arts & Culture Senior Reporter @STLpublicradio.  Before: @BostonGlobe @WBUR @NEPRnews. Other bylines: @nytimes @NPR. From Boston; adopted the Berkshires
n784,n784,TRUE,noahpransky,25082216,25082216,1,4.0,noahpransky,Journalist,Investigative/political reporter covering GenZ/Millennial voters for @NBCLX. Fmr. competitive eater pro mascot. #ZombieCampaigns slayer. FB/IG: @NoahPransky
n1484,n1484,TRUE,vermontgmg,926601,926601,1,4.0,vermontgmg,Journalist,Journalist. Director @aspencyber. Contributor @WIRED @CNN @Longreads. Fmr ed @PoliticoMag & @washingtonian. garrett.graff AT https://t.co/N8GNSmiLuw OR https://t.co/MvjLegq98s.
n394,n394,TRUE,JamesVGrimaldi,17178161,17178161,0,4.0,JamesVGrimaldi,Journalist,James Grimaldi is a Pulitzer-winning journalist from Kansas City Mo. living in Washington D.C. working for The Wall Street Journal.
n1178,n1178,TRUE,JohnSimpsonNews,4894738653,4894738653,2,4.0,JohnSimpsonNews,Journalist,Journalist & author. Still with BBC after 53 yrs trying to make sense of a mad world. Travel's in the blood. https://t.co/ITdMZF3U9z Instagram @johnsimpsonnews.
n84,n84,TRUE,lavern_spicer,1187835922118787073,1187835922118787073,0,3.0,lavern_spicer,Rep,Running in Miami to defeat Do-Nothing Fredrica Wilson. I support President Trump. Black people do NOT have to vote for Democrats! #Blexit
n1398,n1398,TRUE,lynseymukomel,802601238,802601238,3,3.0,lynseymukomel,Journalist,@WOODTV #the7on8 anchor reporter and Target 8 investigator. I love accountability and wine. Opinions are my own. Story? Lynsey.Mukomel@WOODTV.com
n120,n120,TRUE,Clint4congress,1283379060744302599,1283379060744302599,19,3.0,Clint4congress,Dem,I am a Democrat who is running for US Congress in FL6.  I am the founder of the Law Offices of Clint Curtis & Associates P.A.
n58,n58,TRUE,DaveBondyTV,113718554,113718554,3,3.0,DaveBondyTV,Journalist,TV News Anchor Digital content manager dad husband journalist Tigers fan
n569,n569,TRUE,meridithmcgraw,20493166,20493166,1,3.0,meridithmcgraw,Journalist,White House Reporter @POLITICO formerly @ABC. DM for Cell/Signal mmcgraw@politico.com West Virginian Texas Ex Hook ‘em Horns🤘🏼🇺🇸🌸
n171,n171,TRUE,JenGranholm,14185317,14185317,29,3.0,JenGranholm,Dem,Patriot; Former Gov. of MI; Prof. @UCBerkeley @GoldmanSchool; fierce Democrat; wife to my hero; mom of 3 glorious souls; @CNN Contributor. Angrier than I want.
n1341,n1341,TRUE,_HeatherWalker,727549620,727549620,3,3.0,_HeatherWalker,Journalist,#News anchor&investigative reporter @woodtv Worked at @kimatv. @BGSU grad. #TOL raised. Insta:heather.m.walker Email: heather.walker@woodtv.com
n100,n100,TRUE,dsupervilleap,122735017,122735017,1,3.0,dsupervilleap,Journalist,White House reporter for The Associated Press
n875,n875,TRUE,MsHannahMurphy,284194876,284194876,1,3.0,MsHannahMurphy,Journalist,Tech reporter @FT writing on Facebook social media disinfo and cyber security. Also singer & musicmaker. 📨hannah.murphy@ft.com. DM for Signal.
n1115,n1115,TRUE,JuliaTerruso,43969066,43969066,27,3.0,JuliaTerruso,Journalist,Philly Inquirer reporter covering the 2020 presidential election. Syracuse U grad. Fan of theater and Philly sports.
n1082,n1082,TRUE,sabrod123,407396336,407396336,19,3.0,sabrod123,Journalist,Reporter @POLITICO | Cubanita de Hialeah | Proudly Medill & NAHJ | Dog mom + obsessed with Abuela | srodriguez@politico.com
n41,n41,TRUE,LaurenWitzkeDE,1102987848741998592,1102987848741998592,0,3.0,LaurenWitzkeDE,Rep,America First Republican for U.S. Senate vs Chris Coons in DE. Pro-worker. Pro-union. Pro-family. ☦️🇺🇸For media inquiries: Media@LaurenWitzke.com
n727,n727,TRUE,aedwardslevy,23908154,23908154,1,3.0,aedwardslevy,Journalist,Senior reporter + polling editor @HuffPostPol covering public opinion and keeping (cross)tabs on the news. LA native. I like puns.
n838,n838,TRUE,jpcipriani,270559548,270559548,11,3.0,jpcipriani,Journalist,Rédacteur en chef à @RadioCanadaInfo journaliste chroniqueur. Twitteur sélectif et schtroumpf curieux.
n798,n798,TRUE,LukeEdison20,2557400970,2557400970,0,3.0,LukeEdison20,Rep,US Air Force D.C. outsider and Republican nominee for Congress in PA-18 running to unseat #DoNothingDoyle in my fight for the ‘Burgh! 🇺🇸
n1300,n1300,TRUE,rmc031,64789340,64789340,34,3.0,rmc031,Journalist,freelance journalist & @theintercept contributor || newsletter: https://t.co/i0CYvReOyS \\ contact: rmc031@gmail or Signal: 202-681-6194 // member @FSP_NWU ✊🏼
n938,n938,TRUE,DrWoodyMyers,312868101,312868101,3,3.0,DrWoodyMyers,Dem,Democratic Candidate for Indiana Governor former Indiana State Health Commissioner Father & Grandfather.
n1181,n1181,TRUE,MarshallCohen,49031364,49031364,1,3.0,MarshallCohen,Journalist,@CNN reporter. Covered the 2016 election Russia investigation impeachment coronavirus 2020 election. Previously @CBSNews. Northwestern alum from Philly.
n808,n808,TRUE,WashingtonPoint,25937737,25937737,7,3.0,WashingtonPoint,Journalist,#Turkey Analyst -- Journalist. @Ahval_en Türkçe: @WasHatti MEast/US politics & Syria #Mülkiye #GMU tanir.ilhan@gmail.com
n310,n310,TRUE,AZGOP,15937190,15937190,6,3.0,AZGOP,Rep,The official Twitter account of the Republican Party of Arizona.
n859,n859,TRUE,melmason,27993391,27993391,2,3.0,melmason,Journalist,politics reporter for @latimes covering 2020. @georgetown/@ucbsoj alum. tell me about your dog. melanie.mason@latimes.com
n286,n286,TRUE,shripal734,157039114,157039114,18,3.0,shripal734,Dem,VP @American_Bridge Board Member @accountable_us. Formerly of @MajorityPAC @JeanneShaheen @DSCC @DCCC @TheDemocrats and more.
n1203,n1203,TRUE,dwhytereports,513949918,513949918,3,3.0,dwhytereports,Journalist,AP Award-Winning Reporter @WOODTV丨@CMUniversity Alumna丨NABJ丨RTDNA Michele Clark Fellow丨Detroit Native丨 #NaturalHairOnAir 👩🏽‍🦱丨Story? ➡️ dana.whyte@woodtv.com
n396,n396,TRUE,MIGOP,17235172,17235172,0,3.0,MIGOP,Rep,Michigan Republican Party. Follow Chairman Laura Cox @MIGOPChair & Donate ➡️ https://bit.ly/2Yu6nit
n23,n23,TRUE,msmith_photo,1064183557,1064183557,1,3.0,msmith_photo,Journalist,Matt Smith is a freelance photojournalist contributing to the Mid-Atlantic region. @NJAdvanceMedia @whyy @AP contributor. @NPPA and @TheNYPPA member.
n1293,n1293,TRUE,TinaSfon,63330870,63330870,1,3.0,TinaSfon,Dem,Politics correspondent for @businessinsider covering Biden/Dems; @suntimes alum; Greek/Polish-American; @whitesox fan. tsfondeles@businessinsider.com. DMs open.
n24,n24,TRUE,DetmerMike,1067184143774162944,1067184143774162944,3,3.0,DetmerMike,Rep,2022 Candidate for ??? / Former candidate for US House - Michigan #TRUMP #MAGA #KAG #AMERICA #MICHIGAN #Buildthewall #Americafirst #NRA
n543,n543,TRUE,mviser,19914257,19914257,1,3.0,mviser,Journalist,National political reporter at @washingtonpost | Reachable at matt.viser@washpost.com
n1215,n1215,TRUE,awzurcher,52573702,52573702,0,2.0,awzurcher,Journalist,BBC senior North America reporter. A Texan who explains US politics to Brits UK politics to Americans & Canadian politics to everyone. Views expressed ≠ BBC's
n592,n592,TRUE,IssamAhmed,210450261,210450261,2,2.0,IssamAhmed,Journalist,Health science and environment reporter for @AFP Tips: issam.ahmed@afp.com He/him.
n360,n360,TRUE,WendyBrandes,16554719,16554719,4,2.0,WendyBrandes,Dem,Activist poll worker jewelry designer blogger ex-journalist (WSJ CNN People) #rotunda10 arrestee. She/her. #BidenHarris2020
n1004,n1004,TRUE,PaulBegala,352548417,352548417,1,2.0,PaulBegala,Rep,Author of YOU’RE FIRED! The Perfect Guide to Beating Donald Trump. CNN contributor. Counselor to President Clinton. “Dopey flunky” according to Trump.
n855,n855,TRUE,Torcuil,27844589,27844589,10,2.0,Torcuil,Rep,"Westminster Editor @Daily_Record. See ""Trump's Mother"" on President's Scottish roots on BBC i-player. Check out ""Sheòl an Iolaire"" tidal sculpture on Facebook"
n649,n649,TRUE,timjhogan,221298491,221298491,3,2.0,timjhogan,Dem,Your Favorite Democratic Consultant™. Former Communications Director for @amyklobuchar. Alum: @HillaryClinton @RepHorsford @nvdems + more
n1472,n1472,TRUE,10NewsCoronel,904539540,904539540,3,2.0,10NewsCoronel,Journalist,Reporter for @10News. San Diego native. Mom to 3 boys. Wife. Catholic. Filipina. Love cheering on the @Padres & San Diego teams. Enjoy telling people’s stories.
n1305,n1305,TRUE,MrDanZak,66267332,66267332,1,2.0,MrDanZak,Journalist,"Journalist at @washingtonpost. Author of ALMIGHTY a book on the bomb: http://amzn.to/2AmwNsY. Buffalo boy. ""The circus is either in town or it isn't."""
n1030,n1030,TRUE,merica,36890646,36890646,1,2.0,merica,Journalist,Political Reporter for @CNN. Covering the 2020 elections. @BentleyU & @AmericanU grad. Nats fan. dan.merica@cnn.com
n1176,n1176,TRUE,PeterAtlantic,485018010,485018010,25,2.0,PeterAtlantic,Journalist,White House reporter for The Atlantic. Proud alum of Wall Street Journal LA Times Philly Inquirer and Times Picayune.  pnicholas@theatlantic.com. Plays 1. e4
n503,n503,TRUE,RafaelCarranza,191975272,191975272,9,2.0,RafaelCarranza,Journalist,Multi-media reporter covering the U.S.-Mexico border for @azcentral and @USAToday • 480-372-0625 • rafael.carranza@arizonarepublic.com
n228,n228,TRUE,jaweedkaleem,14819030,14819030,2,2.0,jaweedkaleem,Journalist,National correspondent @latimes. Former religion reporter for @HuffPost and @MiamiHerald.
n714,n714,TRUE,INDems,23628021,23628021,22,2.0,INDems,Dem,This is the Indiana Democratic Party's official Twitter account.
n212,n212,TRUE,TimWalberg,146099856,146099856,14,2.0,TimWalberg,Conservative,Proven conservative leader fighting for Michigan job creation less government spending and more freedom.
n963,n963,TRUE,KayaJones,32626129,32626129,6,2.0,KayaJones,Rep,Child of the King✞That makes me Royalty👑Actress | Producer | Grammy Winning Vocalist | Grammy Advocacy | Trump Campaign Advisory Board WFT
n346,n346,TRUE,KimberlyYeeAZ,164054177,164054177,9,2.0,KimberlyYeeAZ,Rep,Treasurer of State of Arizona former Senate Republican Majority Leader 2016 RNC Convention Speaker Wife Mom Pepperdine Alumna ASU M.P.A. AZ Born & Raised.
n1387,n1387,TRUE,BillyBaldwin,784890784273215488,784890784273215488,7,2.0,BillyBaldwin,Rep,Playing for keeps this time... there’s too much at stake. Joe Biden 2020 🇺🇸 #AmericaOrTrump
n1331,n1331,TRUE,DonovanLongTV,707549113416548352,707549113416548352,3,2.0,DonovanLongTV,Journalist,2x Emmy AP Award-winning Anchor/Reporter iWork for @WOODTV • Jeremiah 29:11 #FreeTheLegs ♿️➡️🏃🏾‍♂️ FAMU 🐍 AΦA 🤙🏾 donovan.long@woodtv.com Instagram: d_long
n353,n353,TRUE,JoeMyGod,16490790,16490790,10,2.0,JoeMyGod,Rep,Soros-paid deep state operative and crisis actor. Gay as in happy. Queer as in fuck you. Atheist. #BlockedByTrump #RESIST
n639,n639,TRUE,nannburke,21877897,21877897,3,2.0,nannburke,Journalist,Washington reporter @detroitnews. Seeking truth peanut butter & endless wonder. mburke@detroitnews.com http://SeeDisclaimer.com
n1242,n1242,TRUE,XavierBecerra,565469671,565469671,1,2.0,XavierBecerra,Rep,Attorney General of California. I've sued @realDonaldTrump 100+ times to defend our families resources & values. This is my political account. #ProtectOurCare
n805,n805,TRUE,rufusgifford,25896607,25896607,1,2.0,rufusgifford,Dem,Deputy Campaign Manager for @JoeBiden. Former Ambassador Obama alum husband optimist honorary viking. Looking to fight the good fight. 🏳️‍🌈
n747,n747,TRUE,NickJFuentes,2442888666,2442888666,0,2.0,NickJFuentes,Conservative,Host of America First • Respected Boston University Alum • Zoomer • Afro-Latino • Gamer • Campus Conservative • Catholic • Comedian • Bladee Superfan
n878,n878,TRUE,ByIanJames,28585356,28585356,9,2.0,ByIanJames,Journalist,Climate and Environment Reporter The Arizona Republic @azcenvironment | Past: AP in Venezuela Caribbean | Have a tip? Email me: ian.james@arizonarepublic.com
n1357,n1357,TRUE,AynRandPaulRyan,755835576,755835576,1,2.0,AynRandPaulRyan,Rep,Op-eds: @washingtonpost @guardianSued Trump & won.Filthy mouth.I have 5 kids. You can't scare me#BidenHarris2020 1⃣2⃣🏴‍☠️
n119,n119,TRUE,GwenGraham,1283359081,1283359081,19,2.0,GwenGraham,Dem,Mom. Wife. Animal lover. Public education advocate. Former member of Congress and Democratic candidate for Governor of Florida.
n285,n285,TRUE,MonaSalama_,1568858138,1568858138,0,2.0,MonaSalama_,Journalist,Political Reporter @Floridianpress • Fashion Content Creator • I Write #WhatMelaniaWore → https://monasalama.com/ • #BackTheBlue
n104,n104,TRUE,FordOConnell,123899931,123899931,0,2.0,FordOConnell,Conservative,Political operative lawyer conservative media advocate author. Fmr. GOP congress candidate. Adj. Prof. @GSPMgwu. As seen on 📺 heard on 📻 & read in 📰.
n28,n28,TRUE,ChrisRBarron,107433523,107433523,0,2.0,ChrisRBarron,Rep,PR and communications specialist pro-Trump regular on Kennedy rec league hockey ASOIAF ECU & Wake Law grad Pirates/Pens/Steelers/Skins/NHLJets/Canada
n105,n105,TRUE,AndrewWagaman,124458514,124458514,1,2.0,AndrewWagaman,Journalist,Allentown city reporter for @mcall. Previously @MCallBusiness. Reader writer irked golfer. Schnecksville native. Tips: (484) 553-7413 awagaman@mcall.com
n18,n18,TRUE,tomwatson,1049171,1049171,1,2.0,tomwatson,Dem,Democratic strategist  nonprofit consultant professor author Mets fan guitar player gardener.
n883,n883,TRUE,BlairBrandt,28724441,28724441,0,2.0,BlairBrandt,Rep,Political Advisor. Florida Co-Chair Trump Victory Finance Committee 2020 🇺🇸. Real Estate Entrepreneur. @Forbes 30 alum. Brandt Group 🐘
n130,n130,TRUE,danielmarans,133081348,133081348,1,2.0,danielmarans,Journalist,Reporter @HuffPost. daniel.marans@huffpost.com
n1427,n1427,TRUE,JulieWBRE_WYOU,839596085660291072,839596085660291072,1,2.0,JulieWBRE_WYOU,Journalist,Weekend Morning Anchor/Reporter • philly native • @YCPAlumni • Story idea? Send me a message!
n1146,n1146,TRUE,mikebarnicle,46479416,46479416,1,2.0,mikebarnicle,Journalist,Mike Barnicle is an award-winning print and broadcast journalist and a social and political commentator. Watch Mike Barnicle at http://www.MikeBarnicle.TV
n958,n958,TRUE,spettypi,32410378,32410378,1,2.0,spettypi,Journalist,Senior White House Reporter for NBC News Digital shannon.pettypiece@nbcuni.com “Everything not saved will be lost” — Nintendo Quit Screen
n760,n760,TRUE,GeraldoRivera,246500501,246500501,0,2.0,GeraldoRivera,Journalist,loving husband and dad loyal friend fierce enemy patriot kick ass reporter proud JewRican
n408,n408,TRUE,jacobkornbluh,17470695,17470695,1,2.0,jacobkornbluh,Journalist,national politics reporter Email: jacob@jewishinsider.com. RT's X endorsements.
n737,n737,TRUE,mtracey,24127811,24127811,0,2.0,mtracey,Journalist,Roving journalist friend to all dogs mtracey@protonmail.com
n1506,n1506,TRUE,ByronDonalds,96015533,96015533,0,1.0,ByronDonalds,Rep,Liberty-loving. Pro-Trump. Pro-2nd Amendment. Pro-life. Husband & father to 3. Conservative Candidate for Congress FL-19.
n952,n952,TRUE,DonnaDeegan,322826756,322826756,28,1.0,DonnaDeegan,Journalist,JAX Native Candidate for #FL04 Eternal Optimist Founder of the Donna Foundation/26.2 w/Donna Former Journalist Will always choose love over fear.
n39,n39,TRUE,GregMusselwhit3,1099070777738055681,1099070777738055681,0,1.0,GregMusselwhit3,Rep,Official page of GOP candidate for US Congress Greg Musselwhite. #FL20 #MAGA #Prolife #2ndAmendment #Trump2020 #AmericaFirst #TakeBackTheHouse
n914,n914,TRUE,MadelineTV,2987955844,2987955844,1,1.0,MadelineTV,Journalist,Reporter at @CBS12. Beach bum mother of cats and question asker. GA➡️TN➡️TX➡️SC➡️FL
n182,n182,TRUE,PaulBlu,14276218,14276218,1,1.0,PaulBlu,Journalist,Senior Reporter @HuffPost. Read me: http://huffpost.com/paul-blumentha… Email me: paulblumenthal@huffpost.com.
n131,n131,TRUE,thehowie,13329732,13329732,23,1.0,thehowie,Dem,Health Policy/Econ Professor @YaleSOM @YaleMed @YaleSPH; Emergency/Trauma #Radiologist; Former U.S. Senate Staff; #Covid19 #ConservativeDemocrat 🏳️‍🌈
n991,n991,TRUE,AkbarSAhmed,343954370,343954370,1,1.0,AkbarSAhmed,Journalist,Foreign affairs reporter @huffpost. Let's be friends: akbar.ahmed@huffpost.com // DM for Signal/WhatsApp
n776,n776,TRUE,yvonnewingett,24983393,24983393,9,1.0,yvonnewingett,Journalist,Working mom of 3 National Political Reporter @azcentral @USAToday Network Gaggle Pod host Homeroom mom @JesseSanchezMLB’s wifey Chingona Gary&Rosie’s girl
n982,n982,TRUE,adamnagourney,339332911,339332911,2,1.0,adamnagourney,Journalist,New York Times reporter former LA bureau chief and national political correspondent just off book leave to help cover 2020 campaign.
n45,n45,TRUE,GOPconvention,110924703,110924703,0,1.0,GOPconvention,Rep,Paid for by the Committee on Arrangements for the 2020 Republican National Convention. Not authorized by any candidate or candidate’s committee. #RNC2020
n101,n101,TRUE,AndyOstroy,123281100,123281100,1,1.0,AndyOstroy,Dem,Proud democrat. Patriot. Love my country. Writer. Filmmaker/producer. Non-profit founder supporting female filmmakers. Drummer. Candy man. https://t.co/ZxB2nKQnUm
n1418,n1418,TRUE,NasirShaikhShow,823261267175555073,823261267175555073,3,1.0,NasirShaikhShow,Conservative,Host of The Dr. Nasir Shaikh Show on Conservative Commandos Radio Network & AUN-TV Broadcasting Group in California #MAGA #Conservative #KAG❤God ❤Guns ❤Constitu
n95,n95,TRUE,Bognet4congress,1217891120241311745,1217891120241311745,0,1.0,Bognet4congress,Rep,Winning back PA-08 Northeastern PA Native  #PennState Alum Conservative Fighter Former President Trump Appointee
n971,n971,TRUE,JStein_WaPo,334385278,334385278,1,1.0,JStein_WaPo,Journalist,White House economics reporter for The Washington Post. Founder of @IthacaVoice. NYR fan. Dog's named Acorn. Jeffrey.stein@washpost.com Signal: 9178872891.
n1431,n1431,TRUE,kendallkarson,848891414415126529,848891414415126529,1,1.0,kendallkarson,Journalist,@ABC News political reporter. @goheels.kendall.j.karson@abc.com
n1432,n1432,TRUE,jackturmanIII,849640167153577984,849640167153577984,1,1.0,jackturmanIII,Journalist,@CBSNews 2020 campaign reporter. @UMich alum. turmanj@cbsnews.com
n140,n140,TRUE,Nate_McMurray,1356368317,1356368317,1,1.0,Nate_McMurray,Rep,Vote Early Oct 24-Nov 1 or on Nov 3. Cast your VOTE we & WNY need you! To stay home is a vote for Trump. Text “McMurray” to 797979 for updates.
n1249,n1249,TRUE,amybwang,57391774,57391774,1,1.0,amybwang,Journalist,Reporter @WashingtonPost covering 2020 presidential campaigns. Previously: The Arizona Republic.
n64,n64,TRUE,JasonRobergeVA,1144076089,1144076089,0,1.0,JasonRobergeVA,Rep,5-4 Supreme Court split for decades 🇺🇸 US Military Vet. 🇺🇸 Lawyer Constitutional Originalist 🇺🇸 Pro-Life Pro-America 2020🇺🇸 Trump 2020
n811,n811,TRUE,Alex_Roarty,26133429,26133429,1,1.0,Alex_Roarty,Journalist,Politics reporter for @mcclatchydc. Contrary to popular belief not from Pennsylvania. @cumberlink alum.
n790,n790,TRUE,RMConservative,252398355,252398355,0,1.0,RMConservative,Conservative,Senior Editor at https://t.co/nnZgW71n8b conservative writer policy analyst host of CR Podcast https://t.co/kNwNIB9w7v
n1447,n1447,TRUE,BrianAbelTV,872125560,872125560,3,1.0,BrianAbelTV,Journalist,@WXYZDetroit Journalist | Michigander | @WesternMichU alum | Political enthusiast | Luke Skywalker liked one of my tweets | #GoBlue | Tips: brian.abel@wxyz.com
n1425,n1425,TRUE,BiancaJoanie,836913667,836913667,1,1.0,BiancaJoanie,Journalist,de todo reporter @miamiherald & @elnuevoherald | bori de pe erre 🇵🇷 | aprendendo português 🇧🇷| send tips en espanglish bpadro@miamiherald.com
n156,n156,TRUE,Z_Everson,13951732,13951732,1,1.0,Z_Everson,Rep,Journalist • Focused on Trump Org • Recently Vanity Fair MSNBC Mother Jones • Always @1100Penn • Tips: z_everson@protonmail.com Signal 202.804.2744
n1407,n1407,TRUE,anaceballos_,80749501,80749501,33,1.0,anaceballos_,Journalist,@MiamiHerald reporter Tallahassee bureau. Hablo español. Say hi 👋🏻 aceballos@miamiherald.com
n807,n807,TRUE,AllenLEllison,25919401,25919401,6,1.0,AllenLEllison,Dem,2020 Democratic Nominee for US Congress CD17FL NDLB2020 Coalition Member Advocate: CIR Environment Equality Veterans & Disabled Americans. #anewpathforward
n1058,n1058,TRUE,Sammy_Roth,390842981,390842981,1,1.0,Sammy_Roth,Journalist,Energy reporter @latimes. Proud alum @MyDesert @USATODAY @ColumbiaSpec. Dodgers fan hiker co-host @TheHatchPodcast. Just trying to be good to people.
n10,n10,TRUE,WillBlackWriter,102955736,102955736,2,1.0,WillBlackWriter,Journalist,Anthro-journalist and author of Veneer of Civilisation Psychopathic Cultures and Beyond the End..https://medium.com/@willblack_53220
n624,n624,TRUE,McDanielJustine,21695334,21695334,27,1.0,McDanielJustine,Journalist,News reporter at The Philadelphia Inquirer mostly covering coronavirus. Northern California native. Philly pretzel enthusiast. jmcdaniel@inquirer.com
n491,n491,TRUE,MarkCavitt,190095658,190095658,3,1.0,MarkCavitt,Journalist,Reporter for @TheOaklandPress | former @mlive @theledger | C: 248-912-4854 O: 248-284-1495| mcavitt@medianewsgroup.com
n602,n602,TRUE,jljacobson,21293089,21293089,1,1.0,jljacobson,Dem,Strategist analyst writer editor founder. Feminist. Progressive but not predictable. Past @Rewire_news @UNFoundation @AJWS @SRHRforAll. #WarrenDemocrat
n1200,n1200,TRUE,ClayTravis,50772918,50772918,0,1.0,ClayTravis,Rep,http://Outkick.com @outkick @foxsportsradio 6-9 am et & @foxbetlive TV show 5 et author Republicans Buy Sneakers Too dad of three boys lawyer
n364,n364,TRUE,ryanobles,16625082,16625082,1,1.0,ryanobles,Rep,@CNN Washington Correspondent | Husband and Dad | Following the 2020 campaign for President- with a focus on @realDonaldTrump's re-election bid | #BillsMafia
n363,n363,TRUE,jamieson,166219963,166219963,1,1.0,jamieson,Journalist,@huffpost labor reporter. dave.jamieson@huffpost.com. DM's open.
n356,n356,TRUE,AndrewRestuccia,165204211,165204211,1,1.0,AndrewRestuccia,Journalist,White House reporter at The Wall Street Journal. andrew.restuccia@wsj.com. Previously: Politico The Hill. DM for Signal.
n1250,n1250,TRUE,RobDiRienzo,573976003,573976003,0,1.0,RobDiRienzo,Journalist,Multimedia reporter for @foxnews. Based in Boston. Covering #Election2020 + beyond. Jersey raised @TempleUniv made. He/him/his
n1010,n1010,TRUE,DelPercioS,357461232,357461232,1,1.0,DelPercioS,Rep,Republican Strategist Crisis Communications Consultant; Political Commentator; Columnist; Senior Advisor @ProjectLincoln #LincolnWomen
n474,n474,TRUE,nytimesworld,1877831,1877831,1,1.0,nytimesworld,Journalist,World news from The New York Times. Follow our journalists here: http://bit.ly/1pHrbd6
n1216,n1216,TRUE,TiffanyAlaniz,525842639,525842639,6,1.0,TiffanyAlaniz,Journalist,FOX23 Morning News anchor and reporter
n1053,n1053,TRUE,anna_orso,38796851,38796851,23,1.0,anna_orso,Journalist,Breaking news reporter at @PhillyInquirer. Send news to DMs or aorso@inquirer.com
n299,n299,TRUE,agearan,15765991,15765991,1,1.0,agearan,Journalist,White House reporter @WashingtonPost and @MSNBC contributor. Foreign policy and politics here mostly. Sometimes pandas.
n1403,n1403,TRUE,MariaESalinas,80654397,80654397,1,1.0,MariaESalinas,Journalist,Julia and Gaby’s mom independent journalist proud Mexican-American @CBSnews contributor http://facebook.com/SalinasMariaEl…
n1328,n1328,TRUE,angie_angers,706265810,706265810,3,1.0,angie_angers,Journalist,Reporter at Bay News 9 in St. Pete Florida. RI native. Story idea? Golf recommendations? Email me at angela.angers@charter.com
n645,n645,TRUE,JoshuaHol,22063600,22063600,1,1.0,JoshuaHol,Rep,Contributor to The Nation. Block Trumpers because there’s no point engaging with people who think that any bad news about a politician they like is fake.
n664,n664,TRUE,AndrewFeinberg,2249531,2249531,1,1.0,AndrewFeinberg,Journalist,Reporter covering White House Hill 2020 etc | seen in @Independent Breakfast Media and others | tips: andrew @ andrewfeinberg-dotcom |dm 4 Signal/ProtonMail
n332,n332,TRUE,laurenegambino,16206682,16206682,1,1.0,laurenegambino,Journalist,senior political reporter @GuardianUS covering the 2020 campaign
n1361,n1361,TRUE,ClevelandHosea,757947989616766978,757947989616766978,29,1.0,ClevelandHosea,Rep,Army Veteran. Small Business Owner. SC Native. Running for Congress in South Carolina's 3rd District. Vote out Trump and all his enablers — like Jeff Duncan.
n1369,n1369,TRUE,AndrewSeidman,766071565,766071565,1,1.0,AndrewSeidman,Journalist,Political reporter The Philadelphia Inquirer. Email: aseidman@inquirer.com @UVA alum.
n705,n705,TRUE,poniewozik,23480093,23480093,1,1.0,poniewozik,Rep,NYT TV critic and author of AUDIENCE OF ONE (a Slate and Publishers Weekly top 10 book of 2019) about how TV created Trump.Orders:https://t.co/cNDkaFjLpq
n1027,n1027,TRUE,chrisriotta,366666718,366666718,30,1.0,chrisriotta,Journalist,Reporter currently for The Independent. Columbia Journalism School Class President. Covering politics protests & pandemics. Voter series: http://bit.ly/35uyeSe
n215,n215,TRUE,jamesoliphant,14660096,14660096,1,1.0,jamesoliphant,Journalist,National politics correspondent @Reuters. Father. Lawyer. Film guy. Proudly from flyover country. Ex-White House Congress Supreme Court reporter.
n668,n668,TRUE,PeteButtigieg,226222147,226222147,2,1.0,PeteButtigieg,Dem,Husband veteran writer Democrat South Bend’s former Mayor Pete. Boot-Edge-Edge. (he/him)My new book Trust: America's Best Chance is available now.
n877,n877,TRUE,SarahGLehr,2858033524,2858033524,3,1.0,SarahGLehr,Journalist,Government watchdog reporter @LSJNews. Formerly Youngstown Vindicator. RTs ≠ endorsements. Likes = bookmarks. slehr@lsj.com. On Signal.
n1206,n1206,TRUE,JessicaHuseman,51781119,51781119,11,1.0,JessicaHuseman,Journalist,"ProPublica reporter CNN analyst. Teachin’: @IBWellsSociety @columbiajourn. Breakin’: every jello mold. ""She appears to be an extremely intelligent lady."""
