link_url_to_expand,size
https://quidestveritas.site/,2
https://ilgiornale.it/news/cronache/incitamenti-violenza-telegram-chiude-i-canali-no-vax-1978234.html/,2
https://amiciamici.com/,2
https://paper.li/thodra/1445630483/,2
https://bit.ly/direttaunomattinaestatetwitter/,2
https://ilgiornale.it/news/politica/certificato-aprile-e-vaccini-record-danimarca-oggi-abolisce-1974441.html/,2
https://italiaviva.it/greenpass_cultura/,2
https://ilgiornale.it/news/politica/frenata-dellema-sui-vaccini-divide-nuovamente-i-virologi-1973111.html/,2
https://bit.ly/3fvj7oi/,2
https://paper.li/rassstampa/1410191705/,2
https://paper.li/albertomarkini/1407937870/,2
https://ilgiornale.it/news/cronache/green-pass-auschwitz-procedimento-disciplinare-contro-1976256.html/,2
