id,link_url_to_expand,expanded_url
1499828165471916035,https://dlvr.it/sl5qcs/,https://abc.net.au\__connectionpool_error__/
1500970058545516544,https://dlvr.it/slgmzn/,https://adage.com\__connectionpool_error__/
1501590896151695360,https://dlvr.it/slnlgj/,https://admin.ch\__connectionpool_error__/
1499771920060796928,https://dlvr.it/sl4lnx/,https://agassizharrisonobserver.com\__client_error__/
1502848058622545927,https://dlvr.it/slbhsy/,https://alarabiya.net\__client_error__/
1503742456512368642,https://dlvr.it/slklyz/,https://albernivalleynews.com\__client_error__/
1506283442857721860,https://dlvr.it/sm904q/,https://aldergrovestar.com\__client_error__/
1498034716271808512,https://dlvr.it/skmbxy/,https://aljazeera.com\__connectionpool_error__/
1504444711905361928,https://dlvr.it/slswyh/,https://alternet.org\__connectionpool_error__/
1499020220710621187,https://dlvr.it/skx3wm/,https://arrowlakesnews.com\__client_error__/
1499147557242474497,https://dlvr.it/skyyrk/,https://arrowlakesnews.com\__client_error__/
1504824203551264769,https://dlvr.it/slx9mf/,https://arrowlakesnews.com\__client_error__/
1506282815519924227,https://dlvr.it/sm8zzf/,https://arrowlakesnews.com\__client_error__/
1503872438731358213,https://dlvr.it/slmbgc/,https://bashawstar.com\__client_error__/
1501229013557133315,https://bit.ly/3mvj0hzvia/,https://bit.ly\__client_error__/
1498325348114747396,https://bit.ly/3hr8luu/,https://bit.ly\__connectionpool_error__/
1503661038486667265,https://bit.ly/3w5j6vc/,https://bit.ly\__connectionpool_error__/
1503583503581335563,https://bit.ly/3kdypau/,https://bit.ly\__connectionpool_error__/
1500358012950568967,https://bit.ly/3tajock/,https://bit.ly\__connectionpool_error__/
1505505933757194241,https://bit.ly/3kpuckw/,https://bit.ly\__connectionpool_error__/
1500200865772318721,https://bit.ly/3hvzizf/,https://bit.ly\__connectionpool_error__/
1506650588284657678,https://bit.ly/3iaj9ws/,https://bit.ly\__connectionpool_error__/
1501228118199398403,https://bit.ly/3mvj0hzvia/,https://bit.ly\__connectionpool_error__/
1498405145268342787,https://bit.ly/3vrv1p1/,https://bit.ly\__connectionpool_error__/
1504155586048495616,https://bit.ly/3n83vrx/,https://bit.ly\__connectionpool_error__/
1498464357184729091,https://bit.ly/3hwg9kt/,https://bit.ly\__connectionpool_error__/
1498768301236932612,https://bit.ly/3hlm2al/,https://bit.ly\__connectionpool_error__/
1498758473315717127,https://bit.ly/3viwger/,https://bit.ly\__connectionpool_error__/
1503976937030840323,https://bit.ly/3jjrgz6/,https://bit.ly\__connectionpool_error__/
1499349197383999490,https://bit.ly/35ohwcf/,https://bitly.com\__client_error__/
1506122259341082633,https://bit.ly/3it3ryy/,https://breakingviews.com\__client_error__/
1506171821720170498,https://bit.ly/3it3ryy/,https://breakingviews.com\__connectionpool_error__/
1498534012746272768,https://dlvr.it/skrlm1/,https://britishherald.com\__client_error__/
1504010596672413697,https://dlvr.it/slnbzq/,https://businessoffashion.com\__client_error__/
1503872441105338369,https://dlvr.it/slmbgc/,https://castlegarnews.com\__client_error__/
1503740073258500099,https://dlvr.it/slkkdx/,https://castoradvance.com\__client_error__/
1501306658328178691,https://dlvr.it/slkkdx/,https://channelnewsasia.com\__client_error__/
1503707260165361665,https://dlvr.it/slkjv4/,https://channelstv.com\__client_error__/
1497022294903832577,https://dlvr.it/skcjzm/,https://chemainusvalleycourier.ca\__client_error__/
1504468110207643649,https://dlvr.it/slsq9c/,https://cloverdalereporter.com\__client_error__/
1499147557880033281,https://dlvr.it/skyyrn/,https://cloverdalereporter.com\__client_error__/
1504457672132751363,https://dlvr.it/slsgtd/,https://cnbc.com\__client_error__/
1502009158467416070,https://dlvr.it/slswyh/,https://cnbc.com\__client_error__/
1505917332253655041,https://dlvr.it/sm5tsz/,https://cnbc.com\__client_error__/
1499028521796050944,https://dlvr.it/skx9fl/,https://cnbc.com\__client_error__/
1497022294975082499,https://dlvr.it/skcjzx/,https://coastmountainnews.com\__client_error__/
1499019721408016384,https://dlvr.it/skx3wm/,https://coastmountainnews.com\__client_error__/
1502285349715779586,https://dlvr.it/slw0pw/,https://cointelegraph.com\__client_error__/
1501678099859050498,https://dlvr.it/slphkm/,https://cointelegraph.com\__client_error__/
1504764555846631424,https://bit.ly/3w5j6vc/,https://commonwealthroundtable.co.uk\__client_error__/
1497810348799266817,https://shar.es/awfjhh/,https://conservativenewszone.com\__client_error__/
1504468112409694215,https://dlvr.it/slsq9q/,https://cranbrooktownsman.com\__client_error__/
1504127901213597698,https://bit.ly/3hlm2al/,https://ctaperu.site\__connectionpool_error__/
1498332465190293506,https://cutt.ly/apubcfk/,https://cutt.ly\__connectionpool_error__/
1503738804619800578,https://dlvr.it/slkjpv/,https://dlvr.it\__connectionpool_error__/
1499139752825475074,https://dlvr.it/skytbm/,https://dlvr.it\__connectionpool_error__/
1500700046345457665,https://dlvr.it/slcvqt/,https://dlvr.it\__connectionpool_error__/
1503431148998828032,https://dlvr.it/slgvyz/,https://dlvr.it\__connectionpool_error__/
1499813707492192259,https://dlvr.it/sl5gfw/,https://dlvr.it\__connectionpool_error__/
1500926551898034177,https://dlvr.it/slfzgw/,https://dlvr.it\__connectionpool_error__/
1503740065414979584,https://dlvr.it/slkk8f/,https://dlvr.it\__connectionpool_error__/
1498981473470214147,https://dlvr.it/skwbjg/,https://dlvr.it\__connectionpool_error__/
1499191853857394689,https://dlvr.it/skyyth/,https://dlvr.it\__connectionpool_error__/
1504392618980962307,https://dlvr.it/slrvdb/,https://dlvr.it\__connectionpool_error__/
1503323824565075968,https://dlvr.it/slfzdr/,https://dlvr.it\__connectionpool_error__/
1499154424509255680,https://dlvr.it/skydwt/,https://dlvr.it\__connectionpool_error__/
1504468112850108422,https://dlvr.it/slsqb8/,https://dlvr.it\__connectionpool_error__/
1501271419404967938,https://dlvr.it/slklyz/,https://dlvr.it\__connectionpool_error__/
1504523809059074066,https://dlvr.it/sltvzk/,https://dlvr.it\__connectionpool_error__/
1503420073918181378,https://dlvr.it/slgmzn/,https://dou.ua\__client_error__/
1502281078341443589,https://dlvr.it/slvy2w/,https://eaglevalleynews.com\__client_error__/
1504824202422980611,https://dlvr.it/slx9lh/,https://eaglevalleynews.com\__client_error__/
1504467357451776017,https://dlvr.it/slspfw/,https://eckvilleecho.com\__client_error__/
1499028519417835520,https://dlvr.it/skx9fl/,https://economies.com\__client_error__/
1498532738889961475,https://dlvr.it/skrlm1/,https://euronews.com\__connectionpool_error__/
1504000023930888194,https://dlvr.it/sln5ys/,https://europe.autonews.com\__connectionpool_error__/
1503760179061747714,https://cutt.ly/apubcfk/,https://fiverr.com\__client_error__/
1498980736736514053,https://dlvr.it/skwbjg/,https://football-italia.net\__client_error__/
1499058970232717320,https://dlvr.it/skxylb/,https://france24.com\__client_error__/
1504468107527536645,https://dlvr.it/slsq9q/,https://grandforksgazette.ca\__client_error__/
1503243039182974976,https://dlvr.it/sldqhl/,https://greekcitytimes.com\__connectionpool_error__/
1504088078264442882,https://bit.ly/3jjrgz6/,https://hindustantimes.com\__client_error__/
1500067492076875777,https://bit.ly/375lnon/,https://hindustantimes.com\__client_error__/
1503322278775308288,https://bit.ly/3mmtobx/,https://hindustantimes.com\__client_error__/
1503595065549410308,https://bit.ly/3kdypau/,https://hindustantimes.com\__client_error__/
1499912542034206722,https://bit.ly/375lnon/,https://hindustantimes.com\__connectionpool_error__/
1503271799664316417,https://bit.ly/3mmtobx/,https://hindustantimes.com\__connectionpool_error__/
1503424623953821704,https://dlvr.it/slfzgw/,https://huffingtonpost.it\__connectionpool_error__/
1504313874777972739,https://dlvr.it/slrfcw/,https://independent.co.uk\__connectionpool_error__/
1506827150300639239,https://dlvr.it/smgbjf/,https://india.com\__client_error__/
1502931500374798338,https://dlvr.it/slbl6r/,https://india.com\__client_error__/
1500395763263758339,https://bit.ly/3tajock/,https://indiatimes.com\__client_error__/
1499813706036756480,https://dlvr.it/sl5gfw/,https://insidermonkey.com\__connectionpool_error__/
1503088264332206084,https://dlvr.it/slcvqt/,https://investing.com\__client_error__/
1506888185116192775,https://dlvr.it/smgbjf/,https://jpost.com\__client_error__/
1498401927113048064,https://dlvr.it/skqs4x/,https://jpost.com\__client_error__/
1501591409022754816,https://dlvr.it/slnlgj/,https://kelownacapnews.com\__client_error__/
1504155588334432256,https://bit.ly/3n83vrx/,https://kfyrtv.com\__connectionpool_error__/
1500147135454400517,https://dlvr.it/sl7qmz/,https://kimberleybulletin.com\__client_error__/
1506746367170920453,https://dlvr.it/smfcvn/,https://koat.com\__client_error__/
1498449711308574720,https://bit.ly/3hwg9kt/,https://kutv.com\__client_error__/
1499147565740150784,https://dlvr.it/skyyth/,https://ladysmithchronicle.com\__client_error__/
1504824835947474945,https://dlvr.it/slx9lh/,https://lakecountrycalendar.com\__client_error__/
1503296761158275076,https://dlvr.it/slfgth/,https://laserscanningforum.com\__client_error__/
1502832453240582147,https://dlvr.it/slzzxj/,https://miamiherald.com\__connectionpool_error__/
1498784768787238912,https://dlvr.it/skv0qb/,https://mirror.co.uk\__client_error__/
1504457041196191749,https://dlvr.it/slsgtd/,https://mirror.co.uk\__client_error__/
1504292068818104325,https://bit.ly/3tamlgt/,https://mixtapeheadz.com\__client_error__/
1505581723890892801,https://bit.ly/3tamlgt/,https://mixtapeheadz.com\__connectionpool_error__/
1499147555187290113,https://dlvr.it/skyyrk/,https://nanaimobulletin.com\__client_error__/
1497023551575973888,https://dlvr.it/skcjzx/,https://nanaimobulletin.com\__client_error__/
1504047964007903234,https://dlvr.it/slnbzq/,https://nbcnews.com\__connectionpool_error__/
1503738930360832000,https://dlvr.it/slkjv4/,https://nelsonstar.com\__client_error__/
1497022294253703170,https://dlvr.it/skcjzf/,https://nelsonstar.com\__client_error__/
1506282815675109377,https://dlvr.it/sm8zzf/,https://nelsonstar.com\__client_error__/
1498999058576379909,https://bit.ly/3icmwjk/,https://newschannel9.com\__client_error__/
1506044946888986630,https://bit.ly/3l8wdgv/,https://newschannel9.com\__client_error__/
1506246818509729794,https://bit.ly/3l8wdgv/,https://newschannel9.com\__connectionpool_error__/
1498820381112782852,https://bit.ly/3icmwjk/,https://newschannel9.com\__connectionpool_error__/
1501220500214738944,https://dlvr.it/sljkmx/,https://newsfeedplus.com\__client_error__/
1499869823404179457,https://dlvr.it/sl5qcs/,https://newsfeedplus.com\__client_error__/
1504436427735506946,https://dlvr.it/slsqb8/,https://newsfeedplus.com\__client_error__/
1498558184574705664,https://dlvr.it/skrxvm/,https://newsfeedplus.com\__client_error__/
1506190966494883843,https://dlvr.it/sm7sdx/,https://newsfeedplus.com\__client_error__/
1500986926169419776,https://dlvr.it/slgvyz/,https://newsfeedplus.com\__client_error__/
1501323154672603137,https://dlvr.it/slkt2t/,https://nytimes.com\__client_error__/
1498784176346071041,https://dlvr.it/skv0qb/,https://nytimes.com\__client_error__/
1504385439540473857,https://dlvr.it/slrqmx/,https://nytimes.com\__client_error__/
1502762918844125184,https://dlvr.it/slzqn4/,https://nytimes.com\__client_error__/
1500915954733117440,https://dlvr.it/slfsj7/,https://nytimes.com\__client_error__/
1503162274600521733,https://dlvr.it/sldmst/,https://nytimes.com\__client_error__/
1506704856253231104,https://dlvr.it/smfcvn/,https://nytimes.com\__client_error__/
1498781232611479552,https://dlvr.it/sktyyj/,https://nytimes.com\__client_error__/
1498452573275054081,https://dlvr.it/skqs4x/,https://nytimes.com\__client_error__/
1500575333354926080,https://dlvr.it/slbl6r/,https://oann.com\__client_error__/
1505268928951455745,https://tinyurl.com/standwithukrainenft/,https://opensea.io\__client_error__/
1499289756643041284,https://paper.li/wissenssucher/,https://paper.li\__client_error__/
1506860819371413506,https://paper.li/supplychainblog/1289970465/,https://paper.li\__client_error__/
1500439649906479106,https://paper.li/shcoolofthought/1403869934/,https://paper.li\__client_error__/
1505093928458113024,https://paper.li/wood_resources/fsc-pefc-certification/,https://paper.li\__client_error__/
1503276027086348292,https://paper.li/wissenssucher/,https://paper.li\__connectionpool_error__/
1497178159833300995,https://paper.li/shcoolofthought/1403869934/,https://paper.li\__connectionpool_error__/
1503599327985512450,https://paper.li/supplychainblog/1289970465/,https://paper.li\__connectionpool_error__/
1504006781864976386,https://paper.li/wood_resources/fsc-pefc-certification/,https://paper.li\__connectionpool_error__/
1498181425706663940,https://paper.li/politicususa/progressives/,https://paper.li\__connectionpool_error__/
1504468108219543554,https://dlvr.it/slsq9c/,https://peacearchnews.com\__client_error__/
1503215340452556803,https://bit.ly/3t5fyxt/,https://politico.eu\__client_error__/
1497073388522672130,https://paper.li/politicususa/progressives/,https://politicususa.com\__client_error__/
1504467361197268992,https://dlvr.it/slspfr/,https://ponokanews.com\__client_error__/
1504468110429986838,https://dlvr.it/slsq9b/,https://pqbnews.com\__client_error__/
1499771920459337729,https://dlvr.it/sl4lnx/,https://quesnelobserver.com\__client_error__/
1504468105044455424,https://dlvr.it/slsq8c/,https://reddeeradvocate.com\__client_error__/
1499302818217218052,https://dlvr.it/skzpms/,https://reddeeradvocate.com\__client_error__/
1503173324410552323,https://dlvr.it/sldqhl/,https://reddit.com\__client_error__/
1503296763725160448,https://dlvr.it/slfgth/,https://reddit.com\__client_error__/
1500517336293408771,https://dlvr.it/slbhsy/,https://reddit.com\__client_error__/
1504435773147287562,https://dlvr.it/slsq8g/,https://reddit.com\__client_error__/
1505173518899580928,https://dlvr.it/slzzxj/,https://reddit.com\__connectionpool_error__/
1500147135311855618,https://dlvr.it/sl7qmz/,https://revelstokereview.com\__client_error__/
1504467352884109319,https://dlvr.it/slspfw/,https://rimbeyreview.com\__client_error__/
1503740064689401857,https://dlvr.it/slkk8f/,https://rosslandnews.com\__client_error__/
1504468108781654021,https://dlvr.it/slsq9b/,https://rosslandnews.com\__client_error__/
1499350314650066945,https://bit.ly/35ohwcf/,https://rt.com\__connectionpool_error__/
1497899076142182402,https://bit.ly/3ijfpfi/,https://samaaenglish.tv\__client_error__/
1497141084010524685,https://bit.ly/3ijfpfi/,https://samaaenglish.tv\__connectionpool_error__/
1506283442656485390,https://dlvr.it/sm904q/,https://saobserver.net\__client_error__/
1504824834420719618,https://dlvr.it/slx9mf/,https://saobserver.net\__client_error__/
1498455269608550400,https://dlvr.it/skqsw0/,https://scmp.com\__connectionpool_error__/
1499029174857736195,https://tinyurl.com/mfmtawmu/,https://sharepoint.com\__client_error__/
1500777842593845248,https://tinyurl.com/ydc7c8tw/,https://shrinke.me\__connectionpool_error__/
1503739427054448640,https://dlvr.it/slkjpv/,https://smartbrief.com\__connectionpool_error__/
1502133747063275524,https://dlvr.it/sltvzk/,https://stuff.co.nz\__connectionpool_error__/
1500147135450210304,https://dlvr.it/sl7qms/,https://sylvanlakenews.com\__client_error__/
1504467352724725766,https://dlvr.it/slspfr/,https://sylvanlakenews.com\__client_error__/
1502764475555848198,https://dlvr.it/slzqn4/,https://talkingpointsmemo.com\__client_error__/
1498217931624251393,https://dlvr.it/sknnvt/,https://tanzaniaweb.com\__client_error__/
1497022294685716485,https://dlvr.it/skcjzm/,https://terracestandard.com\__client_error__/
1504468105178742784,https://dlvr.it/slsq8c/,https://terracestandard.com\__client_error__/
1498403951586131970,https://dlvr.it/skqsw0/,https://thecoindetective.com\__client_error__/
1498568726005772289,https://bit.ly/3hr8luu/,https://theeastafrican.co.ke\__connectionpool_error__/
1503651738493997057,https://dlvr.it/sljfrv/,https://thelocal.de\__client_error__/
1499139752292851714,https://dlvr.it/skytbf/,https://thenorthernview.com\__client_error__/
1498600887656218629,https://dlvr.it/skrxvm/,https://theparadise.ng\__client_error__/
1501577837723078657,https://dlvr.it/sljfrv/,https://thetrentonline.com\__connectionpool_error__/
1500775369850306561,https://tinyurl.com/ydc7c8tw/,https://tinyurl.com\__connectionpool_error__/
1505215904979816451,https://tinyurl.com/standwithukrainenft/,https://tinyurl.com\__connectionpool_error__/
1499028998512332802,https://tinyurl.com/mfmtawmu/,https://tinyurl.com\__connectionpool_error__/
1502284724051402754,https://dlvr.it/slw0pw/,https://tncn.com\__client_error__/
1500147135366320130,https://dlvr.it/sl7qms/,https://trailtimes.ca\__client_error__/
1499139754268323844,https://dlvr.it/skytbm/,https://trailtimes.ca\__client_error__/
1503047113109872647,https://bit.ly/3t5fyxt/,https://trib.al\__connectionpool_error__/
1498034723364298753,https://dlvr.it/skmbxy/,https://tribpub.com\__client_error__/
1501220507227602945,https://dlvr.it/sljkmx/,https://twitter.com\__connectionpool_error__/
1506190961860251649,https://dlvr.it/sm7sdx/,https://twitter.com\__connectionpool_error__/
1499218924382138370,https://bit.ly/3hvzizf/,https://ukraine.ua\__client_error__/
1506644606619893769,https://bit.ly/3iaj9ws/,https://uni-due.zoom.us\__connectionpool_error__/
1497793002311352327,https://shar.es/awfjhh/,https://unicef.org\__client_error__/
1499155424192331779,https://dlvr.it/skydwt/,https://vanguardngr.com\__client_error__/
1497526857574457347,https://bit.ly/3viwger/,https://ventevenezuela.org\__client_error__/
1504468104939679748,https://dlvr.it/slsq8g/,https://vernonmorningstar.com\__client_error__/
1499147555371814919,https://dlvr.it/skyyrn/,https://vernonmorningstar.com\__client_error__/
1502281078874116102,https://dlvr.it/slvy2w/,https://vernonmorningstar.com\__client_error__/
1497110391045771266,https://dlvr.it/skxylb/,https://voatiengviet.com\__connectionpool_error__/
1498255219423006726,https://dlvr.it/sknnvt/,https://washingtonpost.com\__connectionpool_error__/
1499258153078120452,https://dlvr.it/skzpms/,https://washingtonpost.com\__connectionpool_error__/
1504313896064077824,https://dlvr.it/slrfcw/,https://washingtonpost.com\__connectionpool_error__/
1504340893070872577,https://dlvr.it/slrqmx/,https://watchinga.com\__connectionpool_error__/
1503720461082931202,https://dlvr.it/slkt2t/,https://wavy.com\__client_error__/
1498440928687648772,https://bit.ly/3vrv1p1/,https://wefornews.com\__connectionpool_error__/
1499139753962196994,https://dlvr.it/skytbf/,https://westerlynews.ca\__client_error__/
1498781391189729280,https://dlvr.it/sktyyj/,https://westknews.com\__client_error__/
1504001033000800257,https://dlvr.it/sln5ys/,https://wildhunt.org\__client_error__/
1501923090028060681,https://dlvr.it/slrvdb/,https://wired.com\__connectionpool_error__/
1497022294689943553,https://dlvr.it/skcjzf/,https://wltribune.com\__client_error__/
1503313636013400069,https://dlvr.it/slfsj7/,https://wrde.com\__client_error__/
1505950701217742851,https://dlvr.it/sm5tsz/,https://wsj.com\__client_error__/
1501730067004542976,https://dlvr.it/slphkm/,https://wsj.com\__client_error__/
1500793643619082242,https://dlvr.it/sldmst/,https://wspa.com\__client_error__/
1500890439003492355,https://dlvr.it/slfzdr/,https://yahoo.com\__client_error__/
1506593295459356675,https://bit.ly/3kpuckw/,https://zoom.us\__client_error__/
