id,link_url_to_expand,expanded_url
1324135473258754048,https://dlvr.it/rl17bf/,https://cowichanvalleycitizen.com\__client_error__/
1324135473573363712,https://dlvr.it/rl17bf/,https://similkameenspotlight.com\__client_error__/
